
#***********************************************************************
#***********************************************************************
#***                                                                 ***
#***                        w w a d r a . l s t                      ***
#***                                                                 ***
#***                 C S   W A R E N W I R T S C H A F T             ***
#***                   Listendefinition fuer activities              ***
#***                             V 1.0                               ***
#***                                                                 ***
#***   Stand: 1.10.2015                             Autor: IF        ***
#***                                                                 ***
#***********************************************************************
#***********************************************************************


#***********************************************************************
#**                                                                   **
#**   Copyright (C) CS, 1995-2006, All Rights Reserved, Confidential  **
#**                                                                   **
#***********************************************************************

#------------------------------ Test -----------------------------------
#          x1   y1   x2   y2   RGB
#RECTANGLE   0    0 -0.1 -0.1  255;255;255  # Zeige gesamten Druckbereich
#-----------------------------------------------------------------------


#           x    y                          # Ausgangspunkt
OFFSET      0    0
SIZE      197  285                          # erwartete Groesse Bereich

#          x1   y1  x2   y2  Breite  RGB
LINE        0  142   1  142   0      0;0;0  # Lochermarkierung Blattmitte
LINE        0   92   1   92   0      0;0;0  # Faltmarkierung 1/3 Blatt
LINE        0  190   1  190   0      0;0;0  # Faltmarkierung 2/3 Blatt

#          Nr    h   Kenn   Name       RGB
FONT        1    5   B      "Arial"    0;0;0     # Font fuer ueberschrift
FONT        2    3   B      "Arial"    0;0;0     # Font fuer Listenueberschrift
FONT        3    2.5          "Arial"    0;0;0     # Font fuer Dateiname
FONT        4    2   -      "Arial"    0;0;0     # Font fuer Inlett

#           x    y                          # Heftrand links
OFFSET     10    10
#=================================================================
#===    An dieser Stelle koennen firmenspezifische             ===
#===    Bestandteile des Formulars wie z.B. Logos oder         ===
#===    Firmenanschrift eingefuegt werden. Die firmen-         ===
#===    spezifischen Bestandteile koennen entweder direkt      ===
#===    eingetragen werden oder in einer eigenen Datei         ===
#===    hinterlegt werden, die mit INCLUDE eingebunden wird.   ===
#===    Als Beispiel kann dazu die firmenspezifisches Datei    ===
#===    'CSHI.LST' dienen.                                     ===
#=================================================================
INCLUDE     "MANDANT.LST"                   # Firmenspezifische Bestandteile
BITMAP  "logo.bmp"   		 0       10       20    25       # Icon zeichnen

#          x1   y1  x2   y2  Breite  RGB
LINE        0   85   -10   85   0.5      0;0;0  # Header Line
LINE        0  111   -10  111   0      0;0;255  # Header Line
LINE        0  145   -10  145   0      0;0;255  # Header Line
RECTANGLE   0  230   -7  260   225;225;225  # grau hinterlegen
LINE       30  230   30  260   0      0;0;255  # Footer Line
LINE       60  230   60  260   0      0;0;255  # Footer Line
LINE       90  230   90  260   0      0;0;255  # Footer Line
LINE      120  230  120  260   0      0;0;255  # Footer Line
LINE      150  230  150  260   0      0;0;255  # Footer Line

#           x    y   Text                 Font  Ausr
TEXT        0     80  "Activity record"      1    L
TEXT        0     90  "Activity Nr"          4    L
TEXT        0     98  "Created Date"         4    L
TEXT       25     98  "Deadline Date"         4    L
TEXT       50     98  "Resubmission Date"         4    L
TEXT        0    106  "Created By"           4    L

TEXT      100     90  "Status"               4    L
TEXT      100     98  "Priority"             4    L
TEXT      100    106  "Remark"               4    L


TEXT        0    116  "Assigned to"          4    L
TEXT        0    124  "CC to"                4    L
TEXT        0    132  "Start Date/Time"      4    L
TEXT        0    140  "End Date/Time"        4    L

TEXT      100    116  "Address"              4    L
TEXT      100    124  "Contact"              4    L
TEXT      100    132  "Project"              4    L
TEXT      100    140  "Transaction"          4    L

TEXT        0    150  "Subject"				 4    L
TEXT        0    158  "Text"				 4    L

TEXT        15    255  "Creator"				 3    C
TEXT        45    255  "Assignee"				 3    C
TEXT        75    255  "Contact"				 3    C
TEXT       105    255  "CC1"     				 3    C
TEXT       135    255  "CC2"	     			 3    C


#         Rec Field   x    y   Font  Adj Lmax
FIELD      0   100    0    94    2    L        # Activity Number
FIELD      0   110    0   102    2    L        # Activity Created Date
FIELD      0   111   25   102    2    L        # Activity Deadline Date
FIELD      0   112   50   102    2    L        # Activity Resubmission Date
FIELD      0   120    0   110    2    L        # Created By

FIELD      0   130  100    94    2    L        # Status
FIELD      0   140  100   102    2    L        # Priority
FIELD      0   150  100   110    2    L        # Remark

FIELD      0   200    0   120    2    L        # Actual User
FIELD      0   210    0   128    2    L        # CC user 1 & CC user 2

FIELD      0   220    0   136    2    L        # Date time from
FIELD      0   230    0   144    2    L        # Date time to

FIELD      0   300  100   120    2    L        # Address
FIELD      0   310  100   128    2    L        # Contact
FIELD      0   400  100   136    2    L        # Project
FIELD      0   500  100   144    2    L        # Transaction

FIELD      0   600    0   154    2    L        # Subject
FIELD      1   700    0     0    3    L        # Text

FIELD      0   120   15   250    2    C        # Created By
FIELD      0   200   45   250    2    C        # Actual User
FIELD      0   310   75   250    2    C        # Contact
FIELD      0   211  105   250    2    C        # CC user 1
FIELD      0   212  135   250    2    C        # CC user 2

RANGE  1 1                                       # alle Seiten
POSITION    1    0  158

RANGE 0 0
POSITION    1    0  162
POSITION    1    0  166
POSITION    1    0  170
POSITION    1    0  174
POSITION    1    0  178
POSITION    1    0  182
POSITION    1    0  186
POSITION    1    0  190
POSITION    1    0  194
POSITION    1    0  198
POSITION    1    0  202
POSITION    1    0  206
POSITION    1    0  210
POSITION    1    0  214
POSITION    1    0  218
POSITION    1    0  222
POSITION    1    0  226
