
#***********************************************************************
#***********************************************************************
#***                                                                 ***
#***                      w w a d r u s r . l s t                    ***
#***                                                                 ***
#***                 C S   W A R E N W I R T S C H A F T             ***
#***          List definition f. user defined address list           ***
#***                             V 1.0                               ***
#***                                                                 ***
#***   Date: 26.11.03                               Autor: Lachner   ***
#***                                                                 ***
#***********************************************************************
#***********************************************************************


#***********************************************************************
#**                                                                   **
#**   Copyright (C) CS, 1995-1996, All Rights Reserved, Confidential  **
#**                                                                   **
#***********************************************************************


#           x    y                          # Starting point
OFFSET      0    0

#          x1   y1  x2   y2  Wight   RGB
LINE        0  142   1  142   0      0;0;0  # Punch marking sheet center
LINE        0   92   1   92   0      0;0;0  # Folding marking 1/3 sheet
LINE        0  190   1  190   0      0;0;0  # Folding marking 2/3 sheet

#           x    y                          # File margin left
OFFSET     20    0

#          No    h   Code   Name       RGB
FONT        1    6   B      "Arial"    0;0;0     # Font for heading
FONT        2    4   B      "Arial"    0;0;0     # Font for list heading
FONT        3    2   -      "Arial"    0;0;0     # Font for file name

#           x    y   Text                 Font  Adj
TEXT        0   10   "CS Warenwirtschaft"  0     L
TEXT      -15   10   "Page"                0     R

#           x    y   Font  Adj
DATE       80   10    0     L
PAGE       -7   10    0     R

#          x1   y1   x2   y2   RGB
RECTANGLE   0   12   -7   22   225;225;225  # heading deposit grey

#          x1   y1   x2   y2   Widht  RGB
#LINE        0   32   -7   32    0.1   0;0;0 # Heading separate from the text

#          Rec Field   x    y   Font Adj  max.Len
 FIELD       0    1    0   -0.8   3    L       # File name list file
 FIELD       0   10    5   19     1    L       # Name of the list
#FIELD       0   20    0   30     2    L       # List heading

 FIELD       1     1  10    4     0    R       # current no

#FIELD       1    10   5    0     0    L       # Address no
#FIELD       1    20   5    0     0    L       # alternative address no
#FIELD       1    30   5    0     0    L       # Address group
 FIELD       1    40  13    4     0    L   25  # Matchcode
#FIELD       1    50   5    0     0    L       # Address key
#FIELD       1    60   5    0     0    L       # Selections

#FIELD       1   100   5    0     0    L       # Salutation
#FIELD       1   110   5    0     0    L       # Title
#FIELD       1   111   5    0     0    L       # Title + Name
#FIELD       1   112   5    0     0    L       # Title + First name + Name
#FIELD       1   120   5    0     0    L       # First name
#FIELD       1   121   5    0     0    L       # Name
 FIELD       1   130  40    4     0    L   70  # First name + Name
#FIELD       1   131  40    4     0    L   70  # Name + First name
 FIELD       1   140  40    8     0    L   70  # Name 2
#FIELD       1   150   5   13     0    L       # Name 3
 FIELD       1   160  40   12     0    L   70  # Street
#FIELD       1   170   5    0     0    L       # Country
#FIELD       1   171   5    0     0    L       # Country full name
#FIELD       1   172   5    0     0    L       # State
#FIELD       1   180   5    0     0    L       # ZIP
#FIELD       1   190   5    0     0    L       # City
#FIELD       1   191   5    0     0    L       # ZIP City
 FIELD       1   192  40   16     0    L   70  # Country - ZIP City

 FIELD       1   300 125    4     0    L   45  # Phone
#FIELD       1   310   5    0     0    L       # Phone 2
#FIELD       1   320   5    0     0    L       # Phone 3
 FIELD       1   330 125    8     0    L   45  # Fax
 FIELD       1   340 125   16     0    L   45  # Remark

#FIELD       1   600   5    0     0    L       # Salutation (page 2)
#FIELD       1   610   5    0     0    L       # Date of birth
#FIELD       1   620   5    0     0    L       # Date of entry
#FIELD       1   630   5    0     0    L       # Bank name
#FIELD       1   640   5    0     0    L       # Account no
#FIELD       1   650   5    0     0    L       # Bank code
#FIELD       1   660   5    0     0    L       # Tax ID
 FIELD       1   670 125   12     0    L   45  # e-Mail
#FIELD       1   680   5    0     0    L       # e-Mail 2
#FIELD       1   690   5    0     0    L       # e-Mail 3
#FIELD       1   700   5    0     0    L       # Internet homepage
#FIELD       1   710   5    0     0    L       # Account
#FIELD       1   720   5    0     0    L       # Partner name
#FIELD       1   730   5    0     0    L       # Partner salutation
#FIELD       1   740   5    0     0    L       # Partner title

#FIELD       1  1000   5    0     0    L       # Salesman no
#FIELD       1  1010   5    0     0    L       # Factoring no
#FIELD       1  1020   5    0     0    L       # My supplier no
#FIELD       1  1030   5    0     0    L       # Reason for delivery block
#FIELD       1  1040   5    0     0    L       # Payment term no
#FIELD       1  1050   5    0     0    L       # Currency no
#FIELD       1  1060   5    0     0    L       # Price class
#FIELD       1  1070   5    0     0    L       # Credit limit
#FIELD       1  1080   5    0     0    L       # Balance
#FIELD       1  1090   5    0     0    L       # Discount %

#FIELD       1  1300   5    0     0    L       # my customer no
#FIELD       1  1310   5    0     0    L       # Min. order value



#--------- constant elements ------------
#          Rec  Code   Element     x1  y1  x2  y2   RGB   (That must stand BEFORE the fields)
#FIELD       1   -1    RECTANGLE    0   0  38  20 255;255;255 # Framework around address
#FIELD       1   -1    RECTANGLE   38   0 110  20 255;255;255
#FIELD       1   -1    RECTANGLE  110   0  -7  20 255;255;255

#          Rec  Code   Element     x1   y1  x2   y2  Wight   RGB
 FIELD       1   -1    LINE         0    0  -7    0  0.1     0;0;0  # upper line
 FIELD       1   -1    LINE         0   20  -7   20  0.1     0;0;0  # lower line
 FIELD       1   -1    LINE         0    0   0   20  0.1     0;0;0  # left line
 FIELD       1   -1    LINE        38    0  38   20  0.1     0;0;0  # internal left line
 FIELD       1   -1    LINE       110    0 110   20  0.1     0;0;0  # internal right line
 FIELD       1   -1    LINE        -7    0  -7   20  0.1     0;0;0  # right line

#          Rec  Code  Element   x    y    Text   Font  Adj
 FIELD       1   -1    TEXT     112   4   "Phone:"  0   L
 FIELD       1   -1    TEXT     112   8   "Fax:"    0   L
 FIELD       1   -1    TEXT     112  12   "Email:"  0   L
 FIELD       1   -1    TEXT     112  16   "Rem:"    0   L


#--------- Coordinates of data records ------
#         Rec    x    y
POSITION    1    0   30
POSITION    1    0   50
POSITION    1    0   70
POSITION    1    0   90
POSITION    1    0  110
POSITION    1    0  130
POSITION    1    0  150
POSITION    1    0  170
POSITION    1    0  190
POSITION    1    0  210
POSITION    1    0  230
POSITION    1    0  250


#------------------------ eof 'wwadrusr.lst' -------------------------


