
#***********************************************************************
#***********************************************************************
#***                                                                 ***
#***                        w w d e m o . l s t                      ***
#***                                                                 ***
#***                 C S   W A R E N W I R T S C H A F T             ***
#***                     Demo - Listendefinition                     ***
#***                             V 1.0                               ***
#***                                                                 ***
#***   Stand: 25.01.97                              Autor: Lachner   ***
#***                                                                 ***
#***********************************************************************
#***********************************************************************


#***********************************************************************
#**                                                                   **
#**   Copyright (C) CS, 1995-1996, All Rights Reserved, Confidential  **
#**                                                                   **
#***********************************************************************

#           x     y
OFFSET     20     0                         #Heftrand

#          Nr   hoehe Attr  Typname         RGB
FONT        1     3     -   "Arial"         0;0;0
FONT        2     4     -   "Arial"         0;0;0
FONT        3     5     -   "Arial"         255;0;0
FONT        4     6     -   "Arial"         0;255;0
FONT        5     7     -   "Arial"         0;0;255

FONT        6     3     -   "Frankenstein"  0;0;0
FONT        7     4     -   "Frankenstein"  0;0;0
FONT        8     5     -   "Frankenstein"  0;0;0
FONT        9     6     -   "Frankenstein"  0;0;0
FONT       10     7     -   "Frankenstein"  0;0;0

#           x     y  Text                        Font Ausr
TEXT        0    20  "Beispieltext Arial"          1
TEXT        0    24  "Beispieltext Arial"          2
TEXT        0    29  "Beispieltext Arial"          3
TEXT        0    35  "Beispieltext Arial"          4
TEXT        0    42  "Beispieltext Arial"          5

TEXT      150    20  "Beispieltext Frankenstein"   6    R
TEXT      150    24  "Beispieltext Frankenstein"   7    R
TEXT      150    29  "Beispieltext Frankenstein"   8    R
TEXT      150    35  "Beispieltext Frankenstein"   9    R
TEXT      150    42  "Beispieltext Frankenstein"  10    R

#          Nr   hoehe Attr  Typname         RGB
FONT        1     2     -   "Arial"         0;0;0

#           x     y  Text                                 Font Ausr
TEXT        0    -1  "CS Computer Service  -  Demo Liste"  1

#          x1    y1   x2    y2   Staerke  RGB
LINE       30    70  150    70     0      0;0;0
LINE       30    75  150    70     0      0;0;0
LINE       30    80  150    70     0      0;0;0
LINE       30    85  150    70     0      0;0;0
LINE       30    90  150    70     0      0;0;0
LINE       30    95  150    70     0      0;0;0
LINE       30   100  150    70     0      0;0;0
LINE       30   105  150    70     0      0;0;0
LINE       30   110  150    70     0      0;0;0
LINE       30   115  150    70     0      0;0;0
LINE       30   120  150    70     0      0;0;0
LINE       30   125  150    70     0      0;0;0

LINE       40   125  150    70     0      0;0;0
LINE       50   125  150    70     0      0;0;0
LINE       60   125  150    70     0      0;0;0
LINE       70   125  150    70     0      0;0;0
LINE       80   125  150    70     0      0;0;0
LINE       90   125  150    70     0      0;0;0
LINE      100   125  150    70     0      0;0;0
LINE      110   125  150    70     0      0;0;0
LINE      120   125  150    70     0      0;0;0
LINE      130   125  150    70     0      0;0;0
LINE      140   125  150    70     0      0;0;0
LINE      150   125  150    70     0      0;0;0

#           x     y
DATE        0    90

#           x     y
TIME        0   100

#          x1    y1   x2    y2   RGB
RECTANGLE   0   130   15   145   0;0;0
RECTANGLE   5   135   30   150   50;50;50
RECTANGLE  10   140   45   155   100;100;100
RECTANGLE  15   145   60   160   150;150;150
RECTANGLE  20   150   75   165   200;200;200
RECTANGLE  25   155   90   170   225;225;225
RECTANGLE  30   160  105   175   255;255;255

#          x1    y1   x2    y2   RGB
ELLIPSE     0   170   15   185   255;128;128
ELLIPSE     5   175   30   190   230;128;140
ELLIPSE    10   180   45   195   205;128;155
ELLIPSE    15   185   60   200   180;128;180
ELLIPSE    20   190   75   205   155;128;205
ELLIPSE    25   195   90   210   140;128;230
ELLIPSE    30   200  105   215   128;128;255

#          x1    y1   x2    y2   Staerke      RGB
LINE        0   230   20   230     8          0;0;0
LINE        0   240   40   240     6          255;0;0
LINE        0   248   60   248     4          0;255;0
LINE        0   254   80   254     2          0;0;255
LINE        0   258  100   258     1          255;255;0
LINE        0   260  120   260     0.5        0;255;255
LINE        0   262  140   262     0.00001    255;0;255


#        Datensatz   x    y
#POSITION    1        0  5000
#POSITION    1        0  5000
#POSITION    1        0  5000
#POSITION    1        0  5000
#POSITION    1        0  5000
#POSITION    1        0  5000
#POSITION    1        0  5000
#POSITION    1        0  5000
#POSITION    1        0  5000
#POSITION    1        0  5000
#POSITION    1        0  5000

#        Datensatz  Feld   x    y     Font  Ausrichtung
#FIELD       1        1     0    0      0

#---------------------- eof 'wwdemo.lst' -----------------------








