
#***********************************************************************
#***********************************************************************
#***                                                                 ***
#***                       w w s t p . l s t                         ***
#***                                                                 ***
#***                 C S   W A R E N W I R T S C H A F T             ***
#***                    Listendefinition fuer Stapel                 ***
#***                             V 1.0                               ***
#***                                                                 ***
#***   Stand: 25.08.09                              Autor: Roman12   ***
#***                                                                 ***
#***********************************************************************
#***********************************************************************


#***********************************************************************
#**                                                                   **
#**   Copyright (C) CS, 1995-2009, All Rights Reserved, Confidential  **
#**                                                                   **
#***********************************************************************

#------------------------------ Test -----------------------------------
#          x1   y1   x2   y2   RGB
#RECTANGLE   0    0 -0.1 -0.1  255;255;255  # Zeige gesamten Druckbereich
#-----------------------------------------------------------------------

PRN_ORIENTATION    L                        # Landscape
PRN_PAPERSIZE     A5                       # Papiergroesse


#           x    y                          # Ausgangspunkt
OFFSET      0    0
SIZE      285  197                      # erwartete Groesse Bereich

#          x1   y1  x2   y2  Breite  RGB
LINE        0  142   1  142   0      0;0;0  # Lochermarkierung Blattmitte
LINE        0   92   1   92   0      0;0;0  # Faltmarkierung 1/3 Blatt
LINE        0  190   1  190   0      0;0;0  # Faltmarkierung 2/3 Blatt

#           x    y                          # Abstand zum Blattrand
OFFSET      5   10

#=================================================================
#===    An dieser Stelle koennen firmenspezifische             ===
#===    Bestandteile des Formulars wie z.B. Logos oder         ===
#===    Firmenanschrift eingefuegt werden. Die firmen-         ===
#===    spezifischen Bestandteile koennen entweder direkt      ===
#===    eingetragen werden oder in einer eigenen Datei         ===
#===    hinterlegt werden, die mit INCLUDE eingebunden wird.   ===
#===    Als Beispiel kann dazu die firmenspezifisches Datei    ===
#===    'CSHI.LST' dienen.                                     ===
#=================================================================
#INCLUDE     "MANDANT.LST"                   # Firmenspezifische Bestandteile

#          Nr    h   Kenn   Name       RGB
FONT        1    6   B      "Arial"    0;0;0     # Font fuer ueberschrift
FONT        2    4   B      "Arial"    0;0;0     # Font fuer Listenueberschrift
FONT        3    2   -      "Arial"    0;0;0     # Font fuer Dateiname
FONT        4  3.2   -      "Arial"    0;0;0     # Font fuer Zeilen
FONT        9    1   -      "Arial"  255;255;255 # unsichtbarer Font fuer Prod.set

#          x1   y1   x2   y2   RGB
#RECTANGLE  0    0  180  105   255;255;255  # Umrisse

LANGUAGE    D                                    # deutsch
#           x    y   Text                      Font  Ausr
TEXT        0   90   "Stapel"                    1     L
TEXT      -15   90   "Seite"                     0     R

TEXT        0  115   "Stapel.Nr"                 4     L

LANGUAGE    E                                    # englisch
#           x    y   Text                      Font  Ausr
TEXT        0   10   "PT DNP"      2     L
TEXT 	    0   18   "Journal Voucher"			 1 	   L
TEXT        0   30   "Date"						 4     L
TEXT      -15   30   "Page"                      4     R
TEXT      133   10   "Keterangan :"                4     L

#TEXT        0   34   "Stack no"                  4     L

LANGUAGE    IN                                   # indonesisch
#           x    y   Text                      Font  Ausr
TEXT        0   10   "PT DNP"                     1     L
TEXT      -15   30   "Page"                      0     R

TEXT        0  34   "Batch no"                  4     L
LANGUAGE                                         # alle Sprachen


#           x    y   Font  Ausr
DATE       45   30    4     L
PAGE      -7   30    0     R

LINE 	   0    32   -7 32 0.4 0;0;255
LINE 	   0    42   -7 42 0.4 0;0;255
LINE 	   0    32   0 -8 0.4 0;0;255
LINE 	   -7    32   -7 -8 0.4 0;0;255
LINE 	   190    32   190 -8 0.4 0;0;255
LINE 	   0    -30   -7 -30 0.4 0;0;255
LINE 	   0    -8   -7 -8 0.4 0;0;255
LINE 	   97    -30   97 -8 0.4 0;0;255

#          x1   y1   x2   y2   Breite RGB
#LINE       0   32   -7   32    0.1   0;0;0 # Ueberschrift vom Text trennen

#------------------------ Allg Daten-Felder ----------------------------
#         Satz Feld   x    y   Font  Ausr
#FIELD       0    1    0   -0.8   3    L     # Dateiname Listfile
#FIELD      0    2   20   -0.8   3    L     # Groesse Druckbereich x [mm]
#FIELD      0    3   40   -0.8   3    L     # Groesse Druckbereich y [mm]

#FIELD      0   10    5   19     1    L     # Name der Liste

#FIELD      0   90   50   10     4    L     # (eigene) Firma.Nr
#FIELD      0   91   45  105     4    L     # (eigene) Firma-Name

RANGE       -1  -1                          # letzte Seite
FIELD       0  310  225  -10     4    R     # Summe Soll
FIELD       0  320  265  -10     4    R     # Summe Haben
RANGE       0    0                          # alle Seiten



#----------------- Datenfelder fuer Header -----------------
#         Satz Feld   x    y   Font  Ausr
#FIELD       0  100   45  34     4    L     # Stapel-Nr


TEXT 1 40 "Type" 4 L
TEXT 12 40 "Debet" 4 L
TEXT 30 40 "Credit" 4 L
TEXT 50 40 "Doc Nr" 4 L
TEXT 70 40 "Description" 4 L
TEXT 195 40 "Amount Debet" 4 L
TEXT 240 40 "Amount Credit" 4 L


#-------------------- Datenfelder Stapel -----------------------
#         Satz Feld   x    y   Font  Ausr
FIELD       1   100   1    0     4    L     # Buchungsart
FIELD       1   110  12    0     4    L     # Soll-Konto                                                        
FIELD       1   120  30    0     4    L     # Haben-Konto                                                       
FIELD       1   130  50    0     4    L     # Beleg-Nr                                                          
FIELD       1   140  70    0     4    L     # Text                                                              
FIELD       1  1010 225    0     4    R     # Betrag Soll
FIELD       1  1020 265    0     4    R     # Betrag Haben
FIELD       1  1500 133  -35     4    L     # User def.1 (keterangan)


#FIELD       1   150 110    0     4    L     # Brutto/Netto                                                      
#FIELD       1   160 115    0     4    L     # Steuerkennzeichen                                                 
#FIELD       1   170 255    0     4    L     # Waehrung-Nr                                                       
#FIELD      1   180   0    0     4    R     # MwSt-Nr                                                           
#FIELD      1   190   0    0     4    R     # Zahlcode-Nr                                                       
FIELD       1   200 120    0     4    L     # Datum                                                             
#FIELD      1   210  140    0     4    R     # Beleg-Datum                                                       
#FIELD      1   220  160    0     4    R     # Valuta-Datum                                                      
#FIELD       1   230 160    0     4    R     # Betrag                                                            
#FIELD      1   240   0    0     4    R     # Nettobetrag                                                       
#FIELD      1   250   0    0     4    R     # MwSt-PRozent                                                      
#FIELD      1   260   0    0     4    R     # MwSt-Betrag                                                       
FIELD       1   270 170    0     4    R     # Betrag in Fremdwaehrung                                           
#FIELD      1   280   0    0     4    R     # Kurs der Frmdwaehrung                                             
#FIELD      1   290   0    0     4    R     # Faktor der Fremdwaehrung                                          
#FIELD      1   300   0    0     4    R     # Periode                                                           

#FIELD       1   1500  16    4     4    L     # User def.1
#FIELD       1   1510   16    4     4    L     # User def.2
#FIELD       1   1520  16    4     4    L     # User def.3
#FIELD       1   1530  16    4     4    L     # User def.4
#FIELD       1   1540  16    4     4    L     # User def.5
#FIELD       1   1550  16    4     4    L     # User def.6

#-------------------- Datenfelder Soll-Konto ---------------------
#         Satz Feld   x    y   Font  Ausr
#FIELD       1  2000 260   -1     4    L     # Name                                                           


#-------------------- Datenfelder Haben-Konto --------------------
#         Satz Feld   x    y   Font  Ausr
#FIELD       1  3000 260    1     4    L     # Name                                                           


#--------------------- Datenfelder Bank ---------------------------
#         Satz Feld   x    y   Font  Ausr
#FIELD      1  4000   0    0     4    L     # Name Bank
#FIELD      1  4010   0    0     4    L     # Name 2
#FIELD      1  4020   0    0     4    L     # Name 3
#FIELD      1  4030   0    0     4    L     # Strasse
#FIELD      1  4040   0    0     4    L     # PLZ
#FIELD      1  4050   0    0     4    L     # Ort
#FIELD      1  4060   0    0     4    L     # Land
#FIELD      1  4100   0    0     4    L     # Bankkonto
#FIELD      1  4110   0    0     4    L     # BLZ
#FIELD      1  4120   0    0     4    L     # BIC
#FIELD      1  4130   0    0     4    L     # IBAN
#FIELD      1  4140   0    0     4    L     # Bemerkung



#------------------------ Definition Datensaetze ------------------------
#         Satz   x    y
POSITION    1    0  50
POSITION    1    0  54
POSITION    1    0  58
POSITION    1    0  62
POSITION    1    0  66
POSITION    1    0  70
POSITION    1    0  74
POSITION    1    0  78
POSITION    1    0  82
POSITION    1    0  86
POSITION    1    0  90
POSITION    1    0  94
POSITION    1    0  98
POSITION    1    0  102
POSITION    1    0  106
POSITION    1    0  110
POSITION    1    0  114

#----------------------- eof 'wwprd.lst' -------------------------




