
#***********************************************************************
#***********************************************************************
#***                                                                 ***
#***                       w w p r e s . l s t                       ***
#***                                                                 ***
#***                 C S   W A R E N W I R T S C H A F T             ***
#***     Listendefinition fuer Ressourcendruck eines Prod.auftrages  ***
#***                             V 1.0                               ***
#***                                                                 ***
#***   Stand: 30.11.2008                            Autor: Roman12   ***
#***                                                                 ***
#***********************************************************************
#***********************************************************************


#***********************************************************************
#**                                                                   **
#**   Copyright (C) CS, 1995-2008, All Rights Reserved, Confidential  **
#**                                                                   **
#***********************************************************************

#------------------------------ Test -----------------------------------
#          x1   y1   x2   y2   RGB
#RECTANGLE   0    0 -0.1 -0.1  255;255;255  # Zeige gesamten Druckbereich
#-----------------------------------------------------------------------

#----------------- Applikation --------------------
APP_YHEADLINE         4.5                   # [mm] Hoehe EINER Titelzeile              
APP_XLEFT             5                     # [mm] Abstand zum linken Rand             
APP_XLEFTDATA        35                     # [mm] Abstand Daten zum linken Rand             
APP_XRIGHT            5                     # [mm] Abstand zum rechten Rand            
APP_YTOP             30                     # [mm] Abstand Ueberschrift zum oberen Rand
APP_YBOTTOM          10                     # [mm] Abstand zum unteren Rand            
APP_YTOPDATA         46                     # [mm] Abstand Ertste Datenzeile zum obedren Rand
APP_YBAR              3                     # [mm] Hoehe des Balkens
APP_YGRID             6                     # [mm] Raster in Y-Richtung (Abstand Balken zum naechsten Balken)

APP_ITEMNUMBER        0                     # Item ident.:       0:Print item number / 1:Print item name / 2:Print both
APP_PRDNUMBER         2                     # Production ident.: 0:Print prd-number / 1:Print prd name / 3:Print item no / 4:print item name
#----- obsolete -----
#APP_WITHMATERIAL      1                    # [0 | 1] Materialartikel     mit eindrucken?
#APP_WITHRESOURCES     1                    # [0 | 1] Ressourceneinsaetze mit eindrucken?
#APP_NEWPAGE           1                    # [0 | 1] Jeden Unterauftrag auf neuer Seite
#--- end obsolete ---

#----------------- Druckervorgaben ----------------
PRN_ORIENTATION   LANDSCAPE
PRN_PAPERSIZE     A4

#           x    y                          # Ausgangspunkt
OFFSET      0    0
#SIZE      197  285                          # erwartete Groesse Bereich

#          x1   y1  x2   y2  Breite  RGB
LINE        0  142   1  142   0      0;0;0  # Lochermarkierung Blattmitte
LINE        0   92   1   92   0      0;0;0  # Faltmarkierung 1/3 Blatt
LINE        0  190   1  190   0      0;0;0  # Faltmarkierung 2/3 Blatt

#           x    y                          # Abstand zum Blattrand
OFFSET      5   10

#          Nr    h   Kenn   Name       RGB
FONT        1   3.3  -      "Arial"    0;0;0     # Font fuer Normalschrift
FONT        2   3.3  -      "Arial"    0;0;0     # Font fuer Ueberschrift
FONT        3   2.5  -      "Arial"    0;0;255   # Font fuer Beschriftung Diagramm
FONT        4   3.3  -      "Arial"    0;0;0     # Font Reserve
FONT        5   3.3  -      "Arial"    0;0;0     # Font Reserve
FONT        6   6    B      "Arial"    0;0;0     # Font fuer Gross-Schrift
FONT        7   2    -      "Arial"    0;0;0     # Font fuer Kleinschrift
FONT        8   4    -      "Arial"    0;0;0     # Font fuer Adresse
FONT        9   3.3  B      "Arial"    0;0;255   # Font fuer Ueberschriften
FONT       10   0.1  -      "Arial"    255;255;255   # Font fuer Unsichtbares
FONT       11   3.3  -      "Arial"    0;0;255   # Font fuer Normalschrift / Farbe

LANGUAGE    D                                    # deutsch
#           x    y   Text                      Font  Ausr
TEXT        0    5   "Produktion-Nr"             1     L
TEXT        0    9   "Bezeichnung"               1     L
TEXT        0   13   "Artikel-Nr"                1     L
TEXT        0   17   "Menge"                     1     L

LANGUAGE    E                                    # englisch
#           x    y   Text                      Font  Ausr
TEXT        0    5   "Production no"             1     L
TEXT        0    9   "Name"                      1     L
TEXT        0   13   "Item no"                   1     L
TEXT        0   17   "Quantity"                  1     L

LANGUAGE    IN                                   # indonesisch
#           x    y   Text                      Font  Ausr
TEXT        0    5   "Production no"             1     L
TEXT        0    9   "Name"                      1     L
TEXT        0   13   "Item no"                   1     L
TEXT        0   17   "Quantity"                  1     L
LANGUAGE                                         # alle Sprachen


#           x    y   Font  Ausr
#DATE      -7   10    0     R
PAGE       -5   -6    1     R

#          x1   y1   x2   y2   Breite RGB
#LINE       0   32   -7   32    0.1   0;0;0 # Ueberschrift vom Text trennen

#         Satz Feld   x    y   Font  Ausr
FIELD       0    1    0   -0.8   7    L     # Dateiname Listfile
#FIELD      0    2   20   -0.8   1    L     # Groesse Druckbereich x [mm]
#FIELD      0    3   40   -0.8   1    L     # Groesse Druckbereich y [mm]

#FIELD      0   10    5   19     1    L     # Name der Liste
#FIELD      0   20    0   30     1    L     # Listenueberschrift

#FIELD      0   90   50   10     1    L     # (eigene) Firma.Nr
#FIELD      0   91   25   25     1    L     # (eigene) Firma-Name


#---------------------- Datenfelder Produktionsauftrag ------------------------
#RANGE      1     1                            # nur Seite 1

#         Satz Feld   x    y   Font  Ausr Lmax
FIELD       0  6000  30    5    11    L        # Produktions-Nr
FIELD       0  6010  30    9    11    L        # Produktions-Name
FIELD       0  6020  30   13    11    L        # ArtikelNr
FIELD       0  6030  30   17    11    L        # Menge




#----------------------- eof 'wwpres.lst' -------------------------




