
#***********************************************************************
#***********************************************************************
#***                                                                 ***
#***                        w w u p s e . l s t                      ***
#***                                                                 ***
#***                 C S   W A R E N W I R T S C H A F T             ***
#***               List definition UPS: EDI summary                  ***
#***                             V 1.0                               ***
#***                                                                 ***
#***   Date: 25.07.00                               Autor: Lachner   ***
#***                                                                 ***
#***********************************************************************
#***********************************************************************


#***********************************************************************
#**                                                                   **
#**   Copyright (C) CS, 1995-2000, All Rights Reserved, Confidential  **
#**                                                                   **
#***********************************************************************

#------------------------------ Test -----------------------------------
#          x1   y1   x2   y2   RGB
#RECTANGLE   0    0 -0.1 -0.1  255;255;255  # Show entire pressure range
#-----------------------------------------------------------------------

#           x    y                          # Starting point
OFFSET      0    0
SIZE      197  285                          # expected size range

#          x1   y1  x2   y2  Width   RGB
LINE        0  142   1  142   0      0;0;0  # Punch marking sheet center
LINE        0   92   1   92   0      0;0;0  # Folding marking 1/3 sheet
LINE        0  190   1  190   0      0;0;0  # Folding marking 2/3 sheet

#           x    y                          # File margin left
OFFSET     20    0

#          No    h   Code   Name           RGB
FONT        1    6   B      "Arial"        0;0;0     # Font for heading
FONT        2    3   B      "Arial"        0;0;0     # Font for list heading
FONT        3    2   -      "Arial"        0;0;0     # Font for file name
FONT        4  2.5   -      "Courier New"  0;0;0     # Font for inlett

#          x1   y1  x2   y2  Width  RGB
LINE        0    8 -0.1   8  0       0;0;0  # Punch marking sheet center
LINE        0   36 -0.1  36  0       0;0;0  # Punch marking sheet center

#           x    y   Text                                                                         Font  Adj
TEXT        0    6   "UPS - EDI Despatch data summary after kinds of transmission and additions"    4    L
TEXT        0   26   "Germany"                                                                      4    L
TEXT        0   30   "Tax no.:"                                                                     4    L
TEXT      -18   14   "Customer Number        :"                                                     4    R
TEXT      -18   18   "Mailing document number:"                                                     4    R
TEXT      -0.1  22   "UPS Interface / CS Computer Service / V3.00"                                  4    R
TEXT      -18   26   "Fetching date :"                                                              4    R
TEXT      -18   30   "Fetching time :"                                                              4    R
TEXT      -18   30   "  ________"                                                                   4    L
TEXT      -17   34   "Page"                                                                         4    L


#           x    y   Font  Adj
DATE      -17   26    4     L
PAGE      -7    34    4     L

#         Satz Feld   x    y   Font  Ausr
FIELD       0    1    0   -0.8   3    L     # File name list file
#FIELD      0    2   20   -0.8   3    L     # Size of pressure range x [mm]
#FIELD      0    3   40   -0.8   3    L     # Size of pressure range y [mm]

#FIELD      0   10    5   19     1    L     # Name of the list
#FIELD      0   20    0   30     2    L     # List heading

FIELD       0  100    0   14     4    L     # Sender name
FIELD       0  110    0   18     4    L     # Sender street
FIELD       0  120    0   22     4    L     # Sender ZIP
FIELD       0  130   13   22     4    L     # Sender city
FIELD       0  140   20   30     4    L     # Sender TaxID
FIELD       0  150  -17   14     4    L     # Customer no at UPS
FIELD       0  160  -17   18     4    L     # Doc. no

FIELD       1   10    0    0     4    L     # Data line

#         Rec    x    y
POSITION    1    0   42
POSITION    1    0   46
POSITION    1    0   50
POSITION    1    0   54
POSITION    1    0   58
POSITION    1    0   62
POSITION    1    0   66
POSITION    1    0   70
POSITION    1    0   74
POSITION    1    0   78
POSITION    1    0   82
POSITION    1    0   86
POSITION    1    0   90
POSITION    1    0   94
POSITION    1    0   98
POSITION    1    0  102
POSITION    1    0  106
POSITION    1    0  110
POSITION    1    0  114
POSITION    1    0  118
POSITION    1    0  122
POSITION    1    0  126
POSITION    1    0  130
POSITION    1    0  134
POSITION    1    0  138
POSITION    1    0  142
POSITION    1    0  146
POSITION    1    0  150
POSITION    1    0  154
POSITION    1    0  158
POSITION    1    0  162
POSITION    1    0  166
POSITION    1    0  170
POSITION    1    0  174
POSITION    1    0  178
POSITION    1    0  182
POSITION    1    0  186
POSITION    1    0  190
POSITION    1    0  194
POSITION    1    0  198
POSITION    1    0  202
POSITION    1    0  206
POSITION    1    0  210
POSITION    1    0  214
POSITION    1    0  218
POSITION    1    0  222
POSITION    1    0  226
POSITION    1    0  230
POSITION    1    0  234
POSITION    1    0  238
POSITION    1    0  242
POSITION    1    0  246
POSITION    1    0  250
POSITION    1    0  254
POSITION    1    0  258
POSITION    1    0  262
POSITION    1    0  266


#--------------------------- eof 'wwupse'lst' -------------------------


