
#***********************************************************************
#***********************************************************************
#***                                                                 ***
#***                       3 6 6 4 a d r . l s t                     ***
#***                                                                 ***
#***                 C S   W A R E N W I R T S C H A F T             ***
#***  Listendefinition f. Adress-Etiketten (Zweckform 3664 Vordruck) ***
#***                             V 1.0                               ***
#***                                                                 ***
#***   Stand: 25.01.97                              Autor: Roman12   ***
#***                                                                 ***
#***********************************************************************
#***********************************************************************


#***********************************************************************
#**                                                                   **
#**   Copyright (C) CS, 1995-1996, All Rights Reserved, Confidential  **
#**                                                                   **
#***********************************************************************


#           x    y                        # Offset links
OFFSET      0    0
#SIZE     400  600                        # Erwartete Groesse Druckbereich

#          Nr    h   Kenn   Name       RGB
FONT        1    4   -      "Arial"    0;0;0     # Font 

#          Satz Feld   x    y   Font  Ausr
#FIELD       1     1   5    0     0    L   # laufende Nr

#FIELD       1    10   5    0     0    L   # Adressnummer
#FIELD       1    20   5    0     0    L   # alternative Adress-Nr
#FIELD       1    30   5    0     0    L   # Adressgruppe
#FIELD       1    40   5    0     0    L   # Matchcode
#FIELD       1    50   5    0     0    L   # Adresskennung
#FIELD       1    60   5    0     0    L   # Selektionen

#FIELD       1   100   5    0     0    L   # Anrede
#FIELD       1   105   5    0     0    L   # Anrede                  (konstant)
#FIELD       1   110   5    0     0    L   # Titel
#FIELD       1   111   5    0     0    L   # Titel + Name
#FIELD       1   112   5    0     0    L   # Titel + Vorname + Name
#FIELD       1   115   5    0     0    L   # Titel                   (konstant)
#FIELD       1   116   5    0     0    L   # Titel + Name            (konstant)
#FIELD       1   117   5    0     0    L   # Titel + Vorname + Name  (konstant)
#FIELD       1   120   5    0     0    L   # Vorname
 FIELD       1   121   5    5     1    L   # Name
#FIELD       1   126   5    5     0    L   # Name                    (konstant)
#FIELD       1   130   5    0     0    L   # Vorname + Name
#FIELD       1   131   5    5     0    L   # Name + Vorname
#FIELD       1   135   5    0     1    L   # Vorname + Name          (konstant)
#FIELD       1   136   5    5     0    L   # Name + Vorname          (konstant)
 FIELD       1   140   5    9     1    L   # Name 2
#FIELD       1   145   5    9     1    L   # Name 2                  (konstant)
 FIELD       1   150   5   13     1    L   # Name 3
#FIELD       1   155   5   13     1    L   # Name 3                  (konstant)
 FIELD       1   160   5   17     1    L   # Str
#FIELD       1   170   5    0     0    L   # Land
#FIELD       1   171   5    0     0    L   # Land voller Name
#FIELD       1   172   5    0     0    L   # State
#FIELD       1   180   5    0     0    L   # PLZ
#FIELD       1   190   5    0     0    L   # Ort
#FIELD       1   191   5    0     0    L   # PLZ Ort
 FIELD       1   192   5   23     1    L   # Land - PLZ Ort

#FIELD       1   300   5    0     0    L   # Telefon
#FIELD       1   310   5    0     0    L   # Telefon 2
#FIELD       1   320   5    0     0    L   # Telefon 3
#FIELD       1   330   5    0     0    L   # Telefax
#FIELD       1   340   5    0     0    L   # Bemerkung

#FIELD       1   600   5    0     0    L   # Briefanrede
#FIELD       1   610   5    0     0    L   # Geburtsdatum
#FIELD       1   620   5    0     0    L   # Beitrittsdatum
#FIELD       1   630   5    0     0    L   # Bankname
#FIELD       1   640   5    0     0    L   # Bankkonto
#FIELD       1   650   5    0     0    L   # BLZ
#FIELD       1   660   5    0     0    L   # Ust ID
#FIELD       1   670   5    0     0    L   # E-Mail
#FIELD       1   680   5    0     0    L   # E-Mail 2
#FIELD       1   690   5    0     0    L   # E-Mail 3
#FIELD       1   700   5    0     0    L   # Internet homepage
#FIELD       1   710   5    0     0    L   # Buchungskon
#FIELD       1   720   5    0     0    L   # Ansprechpartner Name
#FIELD       1   730   5    0     0    L   # Ansprechpartner Anrede
#FIELD       1   740   5    0     0    L   # Ansprechpartner Titel

#FIELD       1  1000   5    0     0    L   # Vertreter-Nr
#FIELD       1  1010   5    0     0    L   # Factoring-Nr
#FIELD       1  1020   5    0     0    L   # Meine Lieferantennr. bei Debitor
#FIELD       1  1030   5    0     0    L   # Grund fuer Liefersperre
#FIELD       1  1040   5    0     0    L   # Zahlcode-Nr
#FIELD       1  1050   5    0     0    L   # Waehrung-Nr
#FIELD       1  1060   5    0     0    L   # Preisklasse
#FIELD       1  1070   5    0     0    L   # Kreditlimit
#FIELD       1  1080   5    0     0    L   # Saldo
#FIELD       1  1090   5    0     0    L   # Nachlass %

#FIELD       1  1300   5    0     0    L   # meine Kunden-Nr bei Creditor
#FIELD       1  1310   5    0     0    L   # Mindestbestellwert

#FIELD       1  2200   5    0     0    L   # Anwenderdef. Feld  1
#FIELD       1  2210   5    0     0    L   # Anwenderdef. Feld  2
#FIELD       1  2220   5    0     0    L   # Anwenderdef. Feld  3
#FIELD       1  2230   5    0     0    L   # Anwenderdef. Feld  4
#FIELD       1  2240   5    0     0    L   # Anwenderdef. Feld  5
#FIELD       1  2250   5    0     0    L   # Anwenderdef. Feld  6


#----- konstante Elemente -----
#FIELD      1   -1    RECTANGLE  2 2  53 29  225;225;225  # kann durch 4 Linien ersetzt werden (Rectange ueberdeckt die Feldinhalte)


#         Satz   x    y
POSITION    1    0   10
POSITION    1   70   10
POSITION    1  140   10

POSITION    1    0   44
POSITION    1   70   44
POSITION    1  140   44

POSITION    1    0   78
POSITION    1   70   78
POSITION    1  140   78

POSITION    1    0  112
POSITION    1   70  112
POSITION    1  140  112

POSITION    1    0  146
POSITION    1   70  146
POSITION    1  140  146

POSITION    1    0  180
POSITION    1   70  180
POSITION    1  140  180

POSITION    1    0  214
POSITION    1   70  214
POSITION    1  140  214

POSITION    1    0  248
POSITION    1   70  248
POSITION    1  140  248


#------------------------ eof '3664adr'lst' -------------------------



