
#***********************************************************************
#***********************************************************************
#***                                                                 ***
#***                    e n d l o s _ a r t . l s t                  ***
#***                                                                 ***
#***                 C S   W A R E N W I R T S C H A F T             ***
#***      Listendefinition f. Artikel-Etiketten (Endlos Rolle)       ***
#***                             V 1.0                               ***
#***                                                                 ***
#***   Stand: 25.01.06                              Autor: Roman12   ***
#***                                                                 ***
#***********************************************************************
#***********************************************************************


#***********************************************************************
#**                                                                   **
#**   Copyright (C) CS, 1995-2006, All Rights Reserved, Confidential  **
#**                                                                   **
#***********************************************************************


#           x    y                        # Offset links
OFFSET      0    0
#SIZE     400  600                        # Erwartete Groesse Druckbereich

#          Nr    h   Kenn   Name          RGB
FONT        1    3   B      "Arial"       0;0;0     # Font fuer Art-Nr
FONT        2    3   -      "Arial"       0;0;0     # Font fuer Text
#FONT       7   19   -      "Code-EAN-HH" 0;0;0     # Font fuer EAN13   Barcode (installieren!)
#FONT       8    8   -      "Code-128"    0;0;0     # Font fuer Code128 Barcode (installieren!)


#          Satz Feld   x    y   Font  Ausr
#FIELD       1     1   5    0     0    L   # laufende Nr

FIELD        1    10   5    5     1    L   # Artikel-Nr
#FIELD       1    10   1    7     8    L 0  CODE128   # Artikel-Nr (BARCODE)
#FIELD       1    11   5    0     8    L 0  Code128   # Prefix '~A' + Artikel-Nr (fuer CODE128-Barcode)
#FIELD       1    20   5    0     2    L   # alternative Artikel-Nr
FIELD        1    30  40    5     2    L   # Artikelgruppe
#FIELD       1    40   5    0     2    L   # Matchcode
#FIELD       1    60   5    0     2    L   # Selektionen
#FIELD       1    70   5    0     2    L   # EAN Code
#FIELD       1    70   5   24     7    L 0 EAN13   # EAN Code
#FIELD       1    80   5    0     0    L   # Hersteller-Artikel-Nr
#FIELD       1    81   0    0     1    L   # Hersteller-Nr Variante bzw Artikel
#FIELD       1    82   0    0     1    L   # Hersteller-Nr Variante pur

FIELD        1   120   5    9     2    L   # Artikelbezeichnung
FIELD        1   130   5   13     2    L   # Textzeile1
#FIELD       1   131   5    0     2    L   # Textzeile2
#FIELD       1   132   5    0     2    L   # Textzeile3
#FIELD       1   140   5    0     2    L   # Bestell-Nr

#FIELD       1   150   5    0     2    L   # EK-Schnitt
#FIELD       1   160   5    0     2    L   # letzter EK
#FIELD       1   170   5    0     2    L   # minimaler VK
FIELD        1   180  50   25     2    R   # Preis
#FIELD       1   185   5    0     0    L   # Bruttopreis
#FIELD       1   190   5    0     2    L   # Endkunden-Preis

#FIELD       1   200   5    0     2    L   # Adress-Nr Hersteller
FIELD        1   201   5   17     2    L   # Hersteller-Name
FIELD        1   300   5   21     2    L   # Lagerplatz
#FIELD       1   310   5    0     2    L   # Mengeneinheit
#FIELD       1   400   5    0     2    L   # Verpackungseinheit
#FIELD       1   410   5    0     2    L   # aktuelle Stueckzahl
#FIELD       1   411   5    0     8    L 0  Code128      # Prefix '~M' + aktuelle Stueckzahl (fuer CODE128-Barcode)
#FIELD       1   412   5    0     8    L 0  Code128      # Prefix '~C' + aktuelle Stueckzahl + ArtikelNr(fuer CODE128-Barcode)
#FIELD       1   420   5    0     2    L   # freie Menge
#FIELD       1   421   5    0     8    L 0  Code128      # Prefix '~M' + freie Menge (fuer CODE128-Barcode)
#FIELD       1   422   5    0     8    L 0  Code128      # Prefix '~C' + freie Menge + ArtikelNr(fuer CODE128-Barcode)
#FIELD       1   430   5    0     0    L   # Laenge
#FIELD       1   440   5    0     0    L   # Breite
#FIELD       1   450   5    0     0    L   # Hoehe
#FIELD       1   460   5    0     0    L   # Gewicht

#FIELD       1   500  70    2     1    L   0  BITMAP   20   15   # Bild-Nr
#FIELD       1   510   5    0     1    L   0  BITMAP   20   15   # Ref.datei 1
#FIELD       1   520   5    0     1    L   0  BITMAP   20   15   # Ref.datei 2

#FIELD       1  2200   5    0     0    L   # Anwenderdef. Feld  1
#FIELD       1  2210   5    0     0    L   # Anwenderdef. Feld  2
#FIELD       1  2220   5    0     0    L   # Anwenderdef. Feld  3
#FIELD       1  2230   5    0     0    L   # Anwenderdef. Feld  4
#FIELD       1  2240   5    0     0    L   # Anwenderdef. Feld  5
#FIELD       1  2250   5    0     0    L   # Anwenderdef. Feld  6
#FIELD       1  2260   5    0     0    L   # Anwenderdef. Feld  7
#FIELD       1  2270   5    0     0    L   # Anwenderdef. Feld  8
#FIELD       1  2280   5    0     0    L   # Anwenderdef. Feld  9
#FIELD       1  2290   5    0     0    L   # Anwenderdef. Feld 10
#FIELD       1  2300   5    0     0    L   # Anwenderdef. Feld 11
#FIELD       1  2310   5    0     0    L   # Anwenderdef. Feld 12
#FIELD       1  2320   5    0     0    L   # Anwenderdef. Feld 13
#FIELD       1  2330   5    0     0    L   # Anwenderdef. Feld 14
#FIELD       1  2340   5    0     0    L   # Anwenderdef. Feld 15
#FIELD       1  2350   5    0     0    L   # Anwenderdef. Feld 16
#FIELD       1  2360   5    0     0    L   # Anwenderdef. Feld 17
#FIELD       1  2370   5    0     0    L   # Anwenderdef. Feld 18
#FIELD       1  2380   5    0     0    L   # Anwenderdef. Feld 19
#FIELD       1  2390   5    0     0    L   # Anwenderdef. Feld 20


#---------------------- Datenfelder des Vorgangs -----------------------
#FIELD       1  3060 110   94     1    L        # unser Zeichen
#FIELD       1  3070 110   98     1    L        # Ihre Anfrage-Nr
#FIELD       1  3080 110   98     1    L        # Ihre Bestell-Nr
#FIELD       1  3100   0    0     1    L        # Lager-Nr

#FIELD       1  3120   0    0     1    L        # Angebot-Nr
#FIELD       1  3121   0    0     1    L        # Auftr.bestaetigung-Nr
#FIELD       1  3122   0    0     1    L        # Bestellung-Nr
#FIELD       1  3123   0    0     1    L        # Gutschrift-Nr
#FIELD       1  3124   0    0     1    L        # Proforma-Rechung-Nr
#FIELD       1  3125   0    0     1    L        # Lieferschein-Nr
#FIELD       1  3126   0    0     1    L        # Rechnung-Nr
#FIELD       1  3127   0    0     1    L        # Brief-Nr
#FIELD       1  3128   0    0     1    L        # Anfrage-Nr
#FIELD       1  3129   0    0     1    L        # Ruecklieferschein-Nr
#FIELD       1  3130   0    0     1    L        # Kommschein-Nr
#FIELD       1  3131   0    0     1    L        # Eingangsrechnung-Nr
#FIELD       1  3132   0    0     1    L        # Lieferanten-Gutschrift-Nr
#FIELD       1  3133   0    0     1    L        # Eingangs-Lieferschein-Nr

#FIELD       1  3150   0    0     1    L        # Angebot-Datum
#FIELD       1  3151   0    0     1    L        # Auftr.bestaetigung-Datum
#FIELD       1  3152   0    0     1    L        # Bestellung-Datum
#FIELD       1  3153   0    0     1    L        # Gutschrift-Datum
#FIELD       1  3154   0    0     1    L        # Proforma-Rechung-Datum
#FIELD       1  3155   0    0     1    L        # Lieferschein-Datum
#FIELD       1  3156   0    0     1    L        # Rechung-Datum
#FIELD       1  3157   0    0     1    L        # Brief-Datum
#FIELD       1  3158   0    0     1    L        # Anfrage-Datum
#FIELD       1  3159   0    0     1    L        # Ruecklieferschein-Datum
#FIELD       1  3160   0    0     1    L        # Komm.schein-Datum
#FIELD       1  3161   0    0     1    L        # Eingangsrechnung-Datum
#FIELD       1  3162   0    0     1    L        # Lieferanten-Gutschrift-Datum
#FIELD       1  3163   0    0     1    L        # Eingangs-Lieferschein-Datum

#FIELD       1  3180 110   90     1    L        # Freidef. Feld
#FIELD       1  3190   0    0     1    L        # Vorgangstext
#FIELD       1  3200   0    0     1    L        # Tracking-Nr
#FIELD       1  3205   0    0     1    L        # Lieferdatum (Vorgangsdaten)

#FIELD       1  3210   0    0     1    L        # Gewicht (kg)
#FIELD       1  3220   0    0     1    L        # Packstuecke
#FIELD       1  3230   0    0     1    L        # Vorgangs-Nr
#FIELD       1  3231   0    0     1    L        # Vorgangs-Nr ohne '~'


#--------------- Erweiterte Daten --------------------
#          Satz Feld   x    y   Font  Ausr
#FIELD       1 10000   5   25     2    L   # Anwenderdaten (Wareneingang: Freier Text)
#FIELD       1 10001   5    0     0    L
#FIELD       1 10002   5    0     0    L
#FIELD       1 10003   5    0     0    L
#FIELD       1 10004   5    0     0    L


#----- konstante Elemente -----
#FIELD     1   -1    RECTANGLE    2    2   53   29  225;225;225
FIELD      1   -1    LINE         0    0   53    0
FIELD      1   -1    LINE        53    0   53   29
FIELD      1   -1    LINE        53   29    0   29
FIELD      1   -1    LINE         0   29    0    0



#         Satz   x    y
POSITION    1    0    0
#POSITION    1    0   38
#POSITION    1    0   86
#POSITION    1    0  124
#POSITION    1    0  162
#POSITION    1    0  200
#POSITION    1    0  238
#POSITION    1    0  276


#------------------------ eof 'endlos_art'lst' -------------------------



