
#***********************************************************************
#***********************************************************************
#***                                                                 ***
#***                         w w s t _ l . l s t                     ***
#***                                                                 ***
#***                 C S   W A R E N W I R T S C H A F T             ***
#***           Listendefinition fuer allg. Listen (Querformat)       ***
#***                             V 1.0                               ***
#***                                                                 ***
#***   Stand: 25.09.01                              Autor: Roman12   ***
#***                                                                 ***
#***********************************************************************
#***********************************************************************


#***********************************************************************
#**                                                                   **
#**   Copyright (C) CS, 1995-2001, All Rights Reserved, Confidential  **
#**                                                                   **
#***********************************************************************

#------------------------------ Test -----------------------------------
#          x1   y1   x2   y2   RGB
#RECTANGLE   0    0 -0.1 -0.1  255;255;255  # Zeige gesamten Druckbereich
#-----------------------------------------------------------------------


#           x    y                          # Ausgangspunkt
OFFSET      0    0
#SIZE     197  285                          # Portrait: erwartete Groesse Bereich
SIZE      285  197                          # Landscape: erwartete Groesse Bereich

#           x1   y1  x2   y2  Breite  RGB
LINE         0   98   1   98   0      0;0;0  # Lochermarkierung Blattmitte
#LINE        0   92   1   92   0      0;0;0  # Faltmarkierung 1/3 Blatt
#LINE        0  190   1  190   0      0;0;0  # Faltmarkierung 2/3 Blatt

#           x    y                          # Heftrand links
OFFSET     10    0

#          Nr    h   Kenn   Name  RGB
FONT        1    6   B      "Arial"    0;0;0     # Font fuer ueberschrift
FONT        2    3   B      "Arial"    0;0;0     # Font fuer Listenueberschrift
FONT        3    2   -      "Arial"    0;0;0     # Font fuer Dateiname
FONT        4    3   -      "Arial"    0;0;0     # Font fuer Zeilen

LANGUAGE    D                               # deutsch
#           x    y   Text                 Font  Ausr
TEXT        0   10   "CS Warenwirtschaft, Statistik"  0     L
TEXT      -15   10   "Seite"               0     R
#TEXT       0   15   "Mandant:"            0     L

LANGUAGE    E                               # englisch
#           x    y   Text                 Font  Ausr
TEXT        0   10   "CS Inventory Control System, statistics"  0     L
TEXT      -15   10   "Page"                0     R
#TEXT       0   15   "Mandant:"            0     L

LANGUAGE    IN                              # indonesisch
#           x    y   Text                 Font  Ausr
TEXT        0   10   "CS Inventory Control System, statistics"  0     L
TEXT      -15   10   "Page"                0     R
#TEXT       0   15   "Mandant:"            0     L
LANGUAGE                                    # alle Sprachen    

#           x    y   Font  Ausr
DATE      120   10    0     L
PAGE       -7   10    0     R

#          x1    y1    x2    y2    RGB
RECTANGLE   0    12    -7    22    225;225;225  # ueberschrift grau hinterlegen

#          x1   y1   x2   y2   Breite RGB
LINE        0   32   -7   32    0.1   0;0;0 # Ueberschrift vom Text trennen

#         Satz Feld   Kommando
#                                x1  y1  x2  y2  RGB           Linie
FIELD       1   -2    RECTANGLE   0  -3  -7   1  225;225;225      -1    # Jede 2. Zeile grau hinterlegen

#         Satz Feld   x    y   Font  Ausr
FIELD       0    1    0   -0.8   3    L     # Dateiname Listfile
#FIELD      0    2   20   -0.8   3    L     # Groesse Druckbereich x [mm]
#FIELD      0    3   40   -0.8   3    L     # Groesse Druckbereich y [mm]

FIELD       0   10    5   19     1    L     # Name der Liste
FIELD       0   20    0   30     2    L     # Listenueberschrift

#FIELD      0  100   20   15     4    L     # Mandant-Nr
#FIELD      0  101   30   15     4    L     # Mandant-Name

FIELD       1   10    0    0     4    L     # Datenzeile

#         Satz   x    y
POSITION    1    2   38
POSITION    1    2   43
POSITION    1    2   48
POSITION    1    2   53
POSITION    1    2   58
POSITION    1    2   63
POSITION    1    2   68
POSITION    1    2   73
POSITION    1    2   78
POSITION    1    2   83
POSITION    1    2   88
POSITION    1    2   93
POSITION    1    2   98
POSITION    1    2  103
POSITION    1    2  108
POSITION    1    2  113
POSITION    1    2  118
POSITION    1    2  123
POSITION    1    2  128
POSITION    1    2  133
POSITION    1    2  138
POSITION    1    2  143
POSITION    1    2  148
POSITION    1    2  153
POSITION    1    2  158
POSITION    1    2  163
POSITION    1    2  168
POSITION    1    2  173
POSITION    1    2  178
POSITION    1    2  183
POSITION    1    2  188
POSITION    1    2  193
POSITION    1    2  198
#POSITION    1    0  166
#POSITION    1    0  170
#POSITION    1    0  174
#POSITION    1    0  178
#POSITION    1    0  182
#POSITION    1    0  186
#POSITION    1    0  190
#POSITION    1    0  194
#POSITION    1    0  198
#POSITION    1    0  202
#POSITION    1    0  206
#POSITION    1    0  210
#POSITION    1    0  214
#POSITION    1    0  218
#POSITION    1    0  222
#POSITION    1    0  226
#POSITION    1    0  230
#POSITION    1    0  234
#POSITION    1    0  238
#POSITION    1    0  242
#POSITION    1    0  246
#POSITION    1    0  250
#POSITION    1    0  254
#POSITION    1    0  258
#POSITION    1    0  262
#POSITION    1    0  266


#--------------------------- eof 'wwst_l.lst' -------------------------







