
#***********************************************************************
#***********************************************************************
#***                                                                 ***
#***                       w w v d a . l s t                         ***
#***                                                                 ***
#***                 C S   W A R E N W I R T S C H A F T             ***
#***               Listendefinition fuer VDA Warenanhaenger          ***
#***                             V 1.0                               ***
#***                                                                 ***
#***   Stand: 25.04.09                              Autor: Roman12   ***
#***                                                                 ***
#***********************************************************************
#***********************************************************************


#***********************************************************************
#**                                                                   **
#**   Copyright (C) CS, 2002-2009, All Rights Reserved, Confidential  **
#**                                                                   **
#***********************************************************************

#------------------------------ Test -----------------------------------
#          x1   y1   x2   y2   RGB
#RECTANGLE   0    0 -0.1 -0.1  255;255;255  # Zeige gesamten Druckbereich
#-----------------------------------------------------------------------


#           x    y                          # Ausgangspunkt
OFFSET     10   10  #before -> 10   16
SIZE      100  130                          # erwartete Groesse Bereich

#          x1   y1  x2   y2  Breite  RGB
#LINE        0  142   1  142   0      0;0;0  # Lochermarkierung Blattmitte
#LINE        0   92   1   92   0      0;0;0  # Faltmarkierung 1/3 Blatt
#LINE        0  190   1  190   0      0;0;0  # Faltmarkierung 2/3 Blatt

#           x    y                          # Abstand zum Blattrand
#OFFSET     5   10

#          Nr    h   Kenn   Name       RGB
FONT        1    6   B      "Arial"    0;0;0     # Font fuer ueberschrift
FONT        2    4   B      "Arial"    0;0;0     # Font fuer Listenueberschrift
FONT        3    2   -      "Arial"    0;0;0     # Font fuer Dateiname
FONT        4    2   -      "Arial"    0;0;0     # Font fuer Zeilen
FONT       10  3.3   B      "Arial"    0;0;0     # Font fuer Kleinschrift
FONT       11  3.5   B      "Arial"    0;0;0     # Font fuer Anschrift
FONT       12    6   B      "Arial"    0;0;0     # Font fuer Grossschrift
FONT       13    6   -      "Arial"    0;0;0     # Font fuer Kleinschrift
FONT       15   13   -      "Code-128" 0;0;0     # Font fuer Code39 Barcode
FONT       16 14.5   -      "Arial"    0;0;0     # Font fuer Kleinschrift

                                                                    
#          x1   y1   x2   y2   RGB
#RECTANGLE   0    0   90  40   255;255;255   # Umrisse
			x  y Text       Font  Align
TEXT        2 18 "Roll Nr:" 13    L         

#         Satz Feld   x    y   Font  Ausr
#FIELD       0   1    0    0    13   L                #Filename
#FIELD       0   2    0    0    13   L                #Horizontal Paper Size
#FIELD       0   3    0    0    13   L                #Vertical Paper Size
#FIELD       0   90   0    0    13   L                #Company Nr
#FIELD       0   91   0    0    13   L                #Company Name
FIELD       0   100  2    6    13   L                #Produktion Nr
#FIELD       0   110  0    0    13   L                #Produktion Location
#FIELD       0   200  0    0    13   L                #Produktion Name
#FIELD       0   210  0    0    13   L                #Produktion Item Nr
#FIELD       0   211  0    0    13   L                #Produktion Item Nr with barcode prefix ~A
FIELD       0   220  2    12    13   L                #Produktion Item Name
#FIELD       0   221  0    0    13   L                #Produktion Item Name2
#FIELD       0   222  0    0    13   L                #Produktion Item Name3
#FIELD       0   223  0    0    13   L                #Produktion Item Name4
FIELD       0   224  50    18    13   L                #Produktion Item Unit
#FIELD       0   300  0    0    13   L                #Produktion Start Date
#FIELD       0   400  0    0    13   L                #Produktion Qty
#FIELD       0   401  0    0    13   L                #Produktion Qty with barcode prefix ~M
FIELD       0   500  35    18    13   L                #Produktion delivered qty from turnover
#FIELD       0   501  0    0    13   L                #Produktion delivered qty from turnover with barcode prefix ~M
FIELD       0   600  2    35    15   L      0 Code128  #Barcode Combination Item nr and Qty
#FIELD       0   700  5    12    13   L               #User Def 1 of item turnover
#FIELD       0   701  5    12    13   L               #User Def 2 of item turnover
#FIELD       0   702  5    12    13   L               #User Def 3 of item turnover
#FIELD       0   703  5    12    13   L               #User Def 4 of item turnover
#FIELD       0   704  5    12    13   L               #User Def 5 of item turnover
#FIELD       0   705  5    12    13   L               #User Def 6 of item turnover
#FIELD       0   706  5    12    13   L               #User Def 7 of item turnover
#FIELD       0   707  5    12    13   L               #User Def 8 of item turnover
#FIELD       0   708  5    12    13   L               #User Def 9 of item turnover
FIELD       0   709  22    18    13   L                #User Def 10 of item turnover




#----------------------- eof 'wwvda.lst' -------------------------