
#***********************************************************************
#***********************************************************************
#***                                                                 ***
#***                       w w v d a . l s t                         ***
#***                                                                 ***
#***                 C S   W A R E N W I R T S C H A F T             ***
#***               Listendefinition fuer VDA Warenanhaenger          ***
#***                             V 1.0                               ***
#***                                                                 ***
#***   Stand: 25.04.09                              Autor: Roman12   ***
#***                                                                 ***
#***********************************************************************
#***********************************************************************


#***********************************************************************
#**                                                                   **
#**   Copyright (C) CS, 2002-2009, All Rights Reserved, Confidential  **
#**                                                                   **
#***********************************************************************

#------------------------------ Test -----------------------------------
#          x1   y1   x2   y2   RGB
#RECTANGLE   0    0 -0.1 -0.1  255;255;255  # Zeige gesamten Druckbereich
#-----------------------------------------------------------------------


#           x    y                          # Ausgangspunkt
OFFSET      0    0
SIZE      197  285                          # erwartete Groesse Bereich

#          x1   y1  x2   y2  Breite  RGB
LINE        0  142   1  142   0      0;0;0  # Lochermarkierung Blattmitte
LINE        0   92   1   92   0      0;0;0  # Faltmarkierung 1/3 Blatt
LINE        0  190   1  190   0      0;0;0  # Faltmarkierung 2/3 Blatt

#           x    y                          # Abstand zum Blattrand
#OFFSET     5   10

#          Nr    h   Kenn   Name       RGB
FONT        1    6   B      "Arial"    0;0;0     # Font fuer ueberschrift
FONT        2    4   B      "Arial"    0;0;0     # Font fuer Listenueberschrift
FONT        3    2   -      "Arial"    0;0;0     # Font fuer Dateiname
FONT        4    4   -      "Arial"    0;0;0     # Font fuer Zeilen
FONT       10    2   -      "Arial"    0;0;0     # Font fuer Kleinschrift
FONT       11  3.3   B      "Arial"    0;0;0     # Font fuer Anschrift
FONT       12    6   B      "Arial"    0;0;0     # Font fuer Grossschrift
FONT       15   15   -      "Code-39-25" 0;0;0   # Font fuer Code39 Barcode
                                                                    
#          x1   y1   x2   y2   RGB
RECTANGLE   0    0 -0.01 145   255;255;255   # Umrisse

#          x1   y1   x2   y2   Breite RGB
LINE        0   15 -0.01  15    0.1   0;0;0  # Waagrechte Linien
LINE      100   30 -0.01  30    0.1   0;0;0
LINE        0   43 -0.01  43    0.1   0;0;0
LINE        0   72 -0.01  72    0.1   0;0;0
LINE      100   82 -0.01  82    0.1   0;0;0
LINE        0  100   100 100    0.1   0;0;0
LINE      100  110 -0.01 110    0.1   0;0;0
LINE        0  120 -0.01 120    0.1   0;0;0

LINE      100    0  100   43    0.1   0;0;0  # Senkrechte Linien
LINE      136   30  136   43    0.1   0;0;0
LINE      172   30  172   43    0.1   0;0;0
LINE      100   72  100  145    0.1   0;0;0
LINE      140  110  140  120    0.1   0;0;0


#           x    y   Text                                                   Font  Ausr
TEXT        1    2   "(1) Warenempfaenger"                                  10     L
TEXT      101    2   "(2) Abladestelle - Lagerort - Verwendungsschluessel"  10     L
TEXT        1   17   "(3) Lieferschein-Nr. (N)"                             10     L
TEXT      101   17   "(4) Lieferantenanschrift (Kurzname, Werk, PLZ, Ort)"  10     L
TEXT      101   32   "(5) Gewicht netto"                                    10     L
TEXT      137   32   "(6) Gewicht brutto"                                   10     L
TEXT      173   32   "(7) Anzahl Packstuecke"                               10     L
TEXT        1   45   "(8) Sach-Nr. Kunde (P)"                               10     L
TEXT        1   74   "(9) Fuellmenge (Q)"                                   10     L
TEXT      101   74   "(10) Bezeichnung, Lieferung, Leistung"                10     L
TEXT      101   84   "(11.1) Sach-Nr. Lieferant (30S)"                      10     L
TEXT        1  102   "(12) Lieferanten-Nr. (V)"                             10     L
TEXT      101  112   "(13) Datum"                                           10     L
TEXT      142  112   "(14) Aenderungsstand Konstruktion"                    10     L
TEXT        1  122   "(15) Packstueck-Nr. (S)"                              10     L
TEXT      101  122   "(16) Chargen-Nr. (H)"                                 10     L
TEXT        1  144   "(17) "                                                10     L
TEXT      101  144   "(18) WARENANHAENGER VDA 4902, Version 4"              10     L
TEXT      142  118   "INDEX"                                                12     L


#           x    y   Font  Ausr
DATE      170  144   10     L
TIME      182  144   10     L
#PAGE      -7   10    0     R


#         Satz Feld   x    y   Font  Ausr
FIELD       0    1  150   144    3    L     # Dateiname Listfile
#FIELD      0    2   20   -0.8   3    L     # Groesse Druckbereich x [mm]
#FIELD      0    3   40   -0.8   3    L     # Groesse Druckbereich y [mm]

#FIELD      0   10    5   19     1    L     # Name der Liste
#FIELD      0   20    0   30     2    L     # Listenueberschrift

#FIELD      0   90   50   10     4    L     # (eigene) Firma.Nr
#FIELD      0   91   50   15    11    L     # (eigene) Firma-Name
FIELD       0   92  101   27    12    L     # (eigene) Firma Name + PLZ
FIELD       0   93    5  144    10    L     # (eigene) Firma Name + Land,PLZ,Ort

FIELD       0  200    1    5    11    L     # Kunden-Name
FIELD       0  210    1    9    11    L     # Kunden-Str
FIELD       0  220    1   13    11    L     # Kunden-Land,PLZ,Ort
FIELD       0  250   26  105    12    L                # (12) Lieferanten-Nr
FIELD       0  251    5  119    15    L  0  CODE39     # (12) "V" + Lieferanten-Nr

FIELD       0  300   26   23    12    L     # Lieferschein-Nr
FIELD       0  301    5   41    15    L  0  CODE39   # Lieferschein-Nr
FIELD       0  310  101  118    12    L     # Lieferschein-Datum (YYMMDD)

FIELD       0  400  105   92    12    L                # Artikel-Nr
FIELD       0  401  105  108    15    L  0  CODE39     # Artikel-Nr
FIELD       0  410   26   52    12    L                # ( 8) Hersteller-Nr
FIELD       0  411    5   70    15    L  0  CODE39     # ( 8) "P" + Hersteller-Nr
FIELD       0  420  101   80    12    L                # Artikel-Name
FIELD       0  430   95   80    12    R                # Verpackungseinheit

FIELD       0  500  117   40    12    C                # Gewicht (netto)
FIELD       0  510  152   40    12    C                # Gewicht (brutto)
FIELD       0  520   26   80    12    L                # ( 9) Verpackungsmenge       (gesamt)
FIELD       0  521    5   98    15    L  0  CODE39     # ( 9) "Q" + Verpackungsmenge (gesamt)
#FIELD      0  525   26   80    12    L                # ( 9) Verpackungsmenge       (pro Packstueck)
#FIELD      0  526    5   98    15    L  0  CODE39     # ( 9) "Q" + Verpackungsmenge (pro Packstueck)
FIELD       0  530  182   40    12    C                # ( 7) Anzahl Packstuecke
FIELD       0  540   26  125    12    L                # (15) Packstueck-Nr
FIELD       0  541    5  141    15    L  0  CODE39     # (15) "S" + Packstueck-Nr
FIELD       0  550  126  125    12    L                # (16) Chargen-Nr
FIELD       0  551  105  141    15    L  0  CODE39     # (16) "H" + Chargen-Nr


#------------- Anwenderdefinierte Felder Adresse ---------------------
#         Satz Feld   x    y   Font  Ausr
#FIELD      0   700   0    0     1    L        # Anwenderdef. Feld  1
#FIELD      0   705   0    0     1    L        # Anwenderdef. Feld  2
#FIELD      0   710   0    0     1    L        # Anwenderdef. Feld  3
#FIELD      0   715   0    0     1    L        # Anwenderdef. Feld  4
#FIELD      0   720   0    0     1    L        # Anwenderdef. Feld  5
#FIELD      0   725   0    0     1    L        # Anwenderdef. Feld  6

#------------- Anwenderdefinierte Felder Artikel ---------------------
#         Satz Feld   x    y   Font  Ausr
#FIELD      0  2200   0    0    1     L        # Anwenderdef. Feld  1
#FIELD      0  2210   0    0    1     L        # Anwenderdef. Feld  2
#FIELD      0  2220   0    0    1     L        # Anwenderdef. Feld  3
#FIELD      0  2230   0    0    1     L        # Anwenderdef. Feld  4
#FIELD      0  2240   0    0    1     L        # Anwenderdef. Feld  5
#FIELD      0  2250   0    0    1     L        # Anwenderdef. Feld  6
#FIELD      0  2260   0    0    1     L        # Anwenderdef. Feld  7
#FIELD      0  2270   0    0    1     L        # Anwenderdef. Feld  8
#FIELD      0  2280   0    0    1     L        # Anwenderdef. Feld  9
#FIELD      0  2290   0    0    1     L        # Anwenderdef. Feld 10
#FIELD      0  2300   0    0    1     L        # Anwenderdef. Feld 11
#FIELD      0  2310   0    0    1     L        # Anwenderdef. Feld 12
#FIELD      0  2320   0    0    1     L        # Anwenderdef. Feld 13
#FIELD      0  2330   0    0    1     L        # Anwenderdef. Feld 14
#FIELD      0  2340   0    0    1     L        # Anwenderdef. Feld 15
#FIELD      0  2350   0    0    1     L        # Anwenderdef. Feld 16
#FIELD      0  2360   0    0    1     L        # Anwenderdef. Feld 17
#FIELD      0  2370   0    0    1     L        # Anwenderdef. Feld 18
#FIELD      0  2380   0    0    1     L        # Anwenderdef. Feld 19
#FIELD      0  2390   0    0    1     L        # Anwenderdef. Feld 20

#------------- Anwenderdefinierte Felder Vorgang ---------------------
#         Satz Feld   x    y   Font  Ausr
#FIELD      0  5000   0    0     1    L        # Anwenderdef. Feld 1
#FIELD      0  5010   0    0     1    L        # Anwenderdef. Feld 2
#FIELD      0  5020   0    0     1    L        # Anwenderdef. Feld 3
#FIELD      0  5030   0    0     1    L        # Anwenderdef. Feld 4
#FIELD      0  5040   0    0     1    L        # Anwenderdef. Feld 5
#FIELD      0  5050   0    0     1    L        # Anwenderdef. Feld 6
#FIELD      0  5060   0    0     1    L        # Anwenderdef. Feld 7



#----------------------- eof 'wwvda.lst' -------------------------




