
#***********************************************************************
#***                         m a n d a n t . l s t                   ***
#***                                                                 ***
#***                           CS Warenwirtschaft                    ***
#***   Allgemeingueltige mandantenspezifische Formularbestandteile   ***
#***                                                                 ***
#***     Stand: 09.07.10                          Autor: Roman12     ***
#***********************************************************************

#======================== Firmenspezifisch =============================
RANGE    0 0                                # alle Seiten

#       Filename    xStart  yStart  xSize ySize
BITMAP  "logo.bmp"    0       0       22    25       # Icon zeichnen

#-------- Text rechts neben Dreieck --------
#          Nr   h    Kenn   Name       RGB
FONT       10   6    -      "Arial"    0;0;100       # Text rechts neben Symbol

#         Satz Feld   x    y   Font  Ausr Lmax
FIELD       0  2710  41    9    10    L              # Firma Name
FIELD       0  2720  41   18    10    L              # Firma Name 2

#           x    y   Text                          Font  Ausr
#TEXT      41    9   "Alternate text"              9     L

RANGE 1 1                                   # nur auf 1. Seite
#-------- Absender im Anschriftfeld ---------
#          Nr   h    Kenn   Name       RGB
FONT       11   2.2  U      "Arial"    0;0;0         # Abs. im Anschr.feld

#         Satz Feld   x    y   Font  Ausr Lmax
FIELD       0  2763   0   37    11    L              # Firma Name, Str, PLZ Ort

#-------- Firmendaten rechts ---------------
#          Nr   h    Kenn   Name       RGB
FONT       12   3    -      "Arial"    0;0;100       # Eigene Daten

LANGUAGE    D                                        # deutsch
#           x    y   Text                          Font  Ausr
TEXT     120    34   "Tel:"                        12    L
TEXT     120    37   "Fax:"                        12    L
TEXT     120    42   "Email:"                      12    L
TEXT     120    50   "Bankverbindung"              12    L
TEXT     120    56   "Konto:"                      12    L
TEXT     120    59   "BLZ:"                        12    L
TEXT     120    62   "SWIFT:"                      12    L
TEXT     120    65   "IBAN:"                       12    L

TEXT     120    70   "Ust-ID:"                     12    L
TEXT     120    73   "Steuer-Nr:"                  12    L
TEXT     120    76   "HRB:"                        12    L

LANGUAGE    E                                        # englisch
#           x    y   Text                          Font  Ausr
TEXT     120    34   "Phone:"                      12    L
TEXT     120    37   "Fax:"                        12    L
TEXT     120    42   "Email:"                      12    L
TEXT     120    50   "Bank name"                   12    L
TEXT     120    56   "Account:"                    12    L
TEXT     120    59   "Bank ID:"                    12    L
TEXT     120    62   "SWIFT:"                      12    L
TEXT     120    65   "IBAN:"                       12    L

TEXT     120    70   "Tax ID:"                     12    L
TEXT     120    73   "Tax no:"                     12    L
TEXT     120    76   "HRB:"                        12    L

LANGUAGE    IN                                       # indonesisch
#           x    y   Text                          Font  Ausr
TEXT     120    34   "Phone:"                      12    L
TEXT     120    37   "Fax:"                        12    L
TEXT     120    42   "Email:"                      12    L
TEXT     120    50   "Bank name"                   12    L
TEXT     120    56   "Account:"                    12    L
TEXT     120    59   "Bank ID:"                    12    L
TEXT     120    62   "SWIFT:"                      12    L
TEXT     120    65   "IBAN:"                       12    L

TEXT     120    70   "Tax ID:"                     12    L
TEXT     120    73   "Tax no:"                     12    L
TEXT     120    76   "HRB:"                        12    L
LANGUAGE                                             # alle Sprachen


RANGE 0 0                                   # alle Seiten
#-------- Formular-Fuss ---------------
#          Nr   h    Kenn   Name       RGB
FONT       14   2.2  -      "Arial"    128;128;128       # Formular-Fuss (grau)
FONT       15   2.2  B      "Arial"    128;128;128       # Formular-Fuss (grau)

LANGUAGE    D                                        # deutsch
#           x    y   Text                          Font  Ausr
TEXT       85   -8.0 "Konto:"                      14    L
TEXT      109   -8.0 "BLZ:"                        14    L
TEXT       85   -5.5 "SWIFT:"                      14    L
TEXT       85   -3.0 "IBAN:"                       14    L

TEXT       40  -10.5 "Tel:"                        14    L
TEXT       40   -8   "Fax:"                        14    L
TEXT       40   -5.5 "Email:"                      14    L
TEXT       40   -3   "Web:"                        14    L

#TEXT     145  -10.5 "Geschäftsführer: <Name>"     14    L
TEXT      145   -8.0 "HRB:"                        14    L
TEXT      145   -5.5 "Ust-ID:"                     14    L
TEXT      145   -3.0 "Steuer-Nr:"                  14    L

LANGUAGE    E                                        # englisch
#           x    y   Text                          Font  Ausr
TEXT       85   -8.0 "Account:"                    14    L
TEXT      109   -8.0 "Bank ID:"                    14    L
TEXT       85   -5.5 "SWIFT:"                      14    L
TEXT       85   -3.0 "IBAN:"                       14    L

TEXT       40  -10.5 "Phone:"                      14    L
TEXT       40   -8   "Fax:"                        14    L
TEXT       40   -5.5 "Email:"                      14    L
TEXT       40   -3   "Web:"                        14    L

#TEXT     145  -10.5 "Managing director: <Name>"   14    L
TEXT      145   -8.0 "HRB:"                        14    L
TEXT      145   -5.5 "Tax ID:"                     14    L
TEXT      145   -3.0 "Tax no:"                     14    L

LANGUAGE    IN                                       # indonesisch
#           x    y   Text                          Font  Ausr
TEXT       85   -8.0 "Account:"                    14    L
TEXT      109   -8.0 "Bank ID:"                    14    L
TEXT       85   -5.5 "SWIFT:"                      14    L
TEXT       85   -3.0 "IBAN:"                       14    L

TEXT       40  -10.5 "Phone:"                      14    L
TEXT       40   -8   "Fax:"                        14    L
TEXT       40   -5.5 "Email:"                      14    L
TEXT       40   -3   "Web:"                        14    L

#TEXT     145  -10.5 "Managing director: <Name>"   14    L
TEXT      145   -8.0 "HRB:"                        14    L
TEXT      145   -5.5 "Tax ID:"                     14    L
TEXT      145   -3.0 "Tax no:"                     14    L
LANGUAGE                                             # alle Sprachen


RANGE 1 1                                            # nur auf 1. Seite
#------------ Firmendaten rechts oben ----------
#         Satz Feld   x    y   Font  Ausr Lmax
FIELD       0  2710 120   25    12    L              # Firma Name
FIELD       0  2740 120   28    12    L              # Firma Strasse
FIELD       0  2761 120   31    12    L              # Firma Land PLZ Ort
FIELD       0  2780 133   34    12    L              # Firma Telefon
FIELD       0  2800 133   37    12    L              # Firma Fax
FIELD       0  2810 133   42    12    L              # Firma Email
FIELD       0  2820 120   45    12    L              # Firma Homepage

FIELD       0  2830 120   53    12    L              # Firma Bankname
FIELD       0  2850 133   56    12    L              # Firma BankkontoNr
FIELD       0  2840 133   59    12    L              # Firma BLZ
FIELD       0  2845 133   62    12    L              # Firma BIC (SWIFT)
FIELD       0  2856 133   65    12    L              # Firma IBAN ('Papierform')
FIELD       0  2860 133   70    12    L              # Firma UstID
FIELD       0  2890 133   73    12    L              # Firma Steuer-Nr
FIELD       0  2900 133   76    12    L              # Firma HRB

RANGE 0 0                                   # alle Seiten
#------------- Formular-Fuss -------------------
#         Satz Feld   x    y   Font  Ausr Lmax
FIELD       0  2710   0   -8    14    L              # Firma Name
FIELD       0  2740   0   -5.5  14    L              # Firma Strasse
FIELD       0  2761   0   -3    14    L              # Firma Land PLZ Ort

FIELD       0  2780  47  -10.5  14    L              # Firma Telefon
FIELD       0  2800  47   -8    14    L              # Firma Fax
FIELD       0  2810  47   -5.5  14    L              # Firma Email
FIELD       0  2820  47   -3    14    L              # Firma Homepage

FIELD       0  2830  85 -10.5   14    L              # Firma Bankname
FIELD       0  2850  94  -8.0   14    L              # Firma BankkontoNr
FIELD       0  2840 116  -8.0   14    L              # Firma BLZ
FIELD       0  2845  94  -5.5   14    L              # Firma BIC (SWIFT)
FIELD       0  2856  94  -3.0   14    L              # Firma IBAN ('Papierform')

FIELD       0  2900 155   -8    14    L              # Firma HRB
FIELD       0  2860 155   -5.5  14    L              # Firma UstID
FIELD       0  2890 155   -3    14    L              # Firma Steuer-Nr

RANGE 0 0                                   # alle Seiten
#===================== Ende firmenspezifisch ===========================

