
#***********************************************************************
#***********************************************************************
#***                                                                 ***
#***                       s n r e t i . l s t                       ***
#***                                                                 ***
#***                 C S   W A R E N W I R T S C H A F T             ***
#*** Listendefinition f. SerienNr-Etiketten (Zweckform 3664 Vordruck)***
#***                             V 1.0                               ***
#***                                                                 ***
#***   Stand: 25.01.99                              Autor: Roman12   ***
#***                                                                 ***
#***********************************************************************
#***********************************************************************


#***********************************************************************
#**                                                                   **
#**   Copyright (C) CS, 1995-2010, All Rights Reserved, Confidential  **
#**                                                                   **
#***********************************************************************


#           x    y                        # Offset links
OFFSET      0    0
#SIZE     400  600                        # Erwartete Groesse Druckbereich

#          Nr    h   Kenn   Name       RGB
FONT        1    3   B      "Arial"    0;0;0     # Font fuer Art-Nr
FONT        2    3   -      "Arial"    0;0;0     # Font fuer Text
FONT        8    8   -      "Code-128" 0;0;0     # Font fuer Code128 Barcode (installieren!)


#          Satz Feld   x    y   Font  Ausr
#FIELD       1     1   5    0     0    L   # laufende Nr

FIELD        1    10   5    5     1    L   # Serien-Nr
FIELD        1    10   5   20     8    L 0  Code128   # SerienNr (fuer CODE128-Barcode)
FIELD        1    20   5   25     2    L   # Artikel-Nr



#----- konstante Elemente -----
#FIELD     1   -1    RECTANGLE    2    2   53   29  225;225;225
FIELD      1   -1    LINE         0    0   53    0
FIELD      1   -1    LINE        53    0   53   29
FIELD      1   -1    LINE        53   29    0   29
FIELD      1   -1    LINE         0   29    0    0


#         Satz   x    y
POSITION    1    0   10
POSITION    1   70   10
POSITION    1  140   10

POSITION    1    0   44
POSITION    1   70   44
POSITION    1  140   44

POSITION    1    0   78
POSITION    1   70   78
POSITION    1  140   78

POSITION    1    0  112
POSITION    1   70  112
POSITION    1  140  112

POSITION    1    0  146
POSITION    1   70  146
POSITION    1  140  146

POSITION    1    0  180
POSITION    1   70  180
POSITION    1  140  180

POSITION    1    0  214
POSITION    1   70  214
POSITION    1  140  214

POSITION    1    0  248
POSITION    1   70  248
POSITION    1  140  248


#------------------------ eof 'snreti'lst' -------------------------



