
#***********************************************************************
#***********************************************************************
#***                                                                 ***
#***                          w w _ l . l s t                        ***
#***                                                                 ***
#***                 C S   W A R E N W I R T S C H A F T             ***
#***        Listendefinition fuer allg. Listen (Landscape-Format)    ***
#***                             V 1.0                               ***
#***                                                                 ***
#***   Stand: 25.09.2006                            Autor: Roman12   ***
#***                                                                 ***
#***********************************************************************
#***********************************************************************


#***********************************************************************
#**                                                                   **
#**   Copyright (C) CS, 1995-2006, All Rights Reserved, Confidential  **
#**                                                                   **
#***********************************************************************

#------------------------------ Test -----------------------------------
#          x1   y1   x2   y2   RGB
#RECTANGLE   0    0 -0.1 -0.1  255;255;255  # Zeige gesamten Druckbereich
#-----------------------------------------------------------------------


#           x    y                          # Ausgangspunkt
OFFSET      0    0
SIZE      285  197                          # erwartete Groesse Bereich

#          x1   y1  x2   y2  Breite  RGB
LINE        0   98   1   98   0      0;0;0  # Lochermarkierung Blattmitte
#LINE       0   92   1   92   0      0;0;0  # Faltmarkierung 1/3 Blatt
#LINE       0  190   1  190   0      0;0;0  # Faltmarkierung 2/3 Blatt

#           x    y                          # Heftrand links
OFFSET     10    0

#          Nr    h   Kenn   Name       RGB
FONT        1    6   B      "Arial"    0;0;0     # Font fuer ueberschrift
FONT        2    3   B      "Arial"    0;0;0     # Font fuer Listenueberschrift
FONT        3    2   -      "Arial"    0;0;0     # Font fuer Dateiname
FONT        4    3   -      "Arial"    0;0;0     # Font fuer Inlett

LANGUAGE    D                               # deutsch
#           x    y   Text                 Font  Ausr
TEXT        0   10   "CS Warenwirtschaft"  0     L
TEXT      -15   10   "Seite"               0     R
#TEXT       0   15   "Mandant:"            0     L

LANGUAGE    E                               # englisch
#           x    y   Text                 Font  Ausr
TEXT        0   10   "CS Inventory Control System"  0     L
TEXT      -15   10   "Page"                0     R
#TEXT       0   15   "Mandant:"            0     L

LANGUAGE    IN                              # indonesisch
#           x    y   Text                 Font  Ausr
TEXT        0   10   "CS Inventory Control System"  0     L
TEXT      -15   10   "Page"                0     R
#TEXT       0   15   "Mandant:"            0     L
LANGUAGE                                    # alle Sprachen    

#           x    y   Font  Ausr
DATE      125   10    0     L
PAGE       -7   10    0     R

#          x1   y1   x2   y2   RGB           Linie
RECTANGLE   0   12   -7   22   225;225;225       # ueberschrift grau hinterlegen

#RECTANGLE   0   39   -7   43   235;235;235   -1  # jede 2. Zeile grau hinterlegen
#RECTANGLE   0   47   -7   51   235;235;235   -1
#RECTANGLE   0   55   -7   59   235;235;235   -1
#RECTANGLE   0   63   -7   67   235;235;235   -1
#RECTANGLE   0   71   -7   75   235;235;235   -1
#RECTANGLE   0   79   -7   83   235;235;235   -1
#RECTANGLE   0   87   -7   91   235;235;235   -1
#RECTANGLE   0   95   -7   99   235;235;235   -1
#RECTANGLE   0  103   -7  107   235;235;235   -1
#RECTANGLE   0  111   -7  115   235;235;235   -1
#RECTANGLE   0  119   -7  123   235;235;235   -1
#RECTANGLE   0  127   -7  131   235;235;235   -1
#RECTANGLE   0  135   -7  139   235;235;235   -1
#RECTANGLE   0  143   -7  147   235;235;235   -1
#RECTANGLE   0  151   -7  155   235;235;235   -1
#RECTANGLE   0  159   -7  163   235;235;235   -1
#RECTANGLE   0  167   -7  171   235;235;235   -1
#RECTANGLE   0  175   -7  179   235;235;235   -1
#RECTANGLE   0  183   -7  187   235;235;235   -1
#RECTANGLE   0  191   -7  195   235;235;235   -1
#RECTANGLE   0  199   -7  203   235;235;235   -1
#RECTANGLE   0  207   -7  211   235;235;235   -1
#RECTANGLE   0  215   -7  219   235;235;235   -1
#RECTANGLE   0  223   -7  227   235;235;235   -1
#RECTANGLE   0  231   -7  235   235;235;235   -1
#RECTANGLE   0  239   -7  243   235;235;235   -1
#RECTANGLE   0  247   -7  251   235;235;235   -1
#RECTANGLE   0  255   -7  259   235;235;235   -1
#RECTANGLE   0  263   -7  267   235;235;235   -1

#          x1   y1   x2   y2   Breite RGB
LINE        0   32   -7   32    0.1   0;0;0 # Ueberschrift vom Text trennen

#         Satz Feld   Kommando
#                                x1  y1  x2  y2  RGB           Linie
FIELD       1   -2    RECTANGLE   0   1  -7   5  240;240;240      -1    # Jede 2. Zeile grau hinterlegen

#         Satz Feld   x    y   Font  Ausr
FIELD       0    1    0   -0.8   3    L     # Dateiname Listfile
#FIELD      0    2   20   -0.8   3    L     # Groesse Druckbereich x [mm]
#FIELD      0    3   40   -0.8   3    L     # Groesse Druckbereich y [mm]

FIELD       0   10    5   19     1    L     # Name der Liste
FIELD       0   20    0   30     2    L     # Listenueberschrift

#FIELD      0  100   20   15     4    L     # Mandant-Nr
#FIELD      0  101   30   15     4    L     # Mandant-Name

FIELD       1   10    0    0     4    L     # Datenzeile

#         Satz   x    y
POSITION    1    0   38
POSITION    1    0   42
POSITION    1    0   46
POSITION    1    0   50
POSITION    1    0   54
POSITION    1    0   58
POSITION    1    0   62
POSITION    1    0   66
POSITION    1    0   70
POSITION    1    0   74
POSITION    1    0   78
POSITION    1    0   82
POSITION    1    0   86
POSITION    1    0   90
POSITION    1    0   94
POSITION    1    0   98
POSITION    1    0  102
POSITION    1    0  106
POSITION    1    0  110
POSITION    1    0  114
POSITION    1    0  118
POSITION    1    0  122
POSITION    1    0  126
POSITION    1    0  130
POSITION    1    0  134
POSITION    1    0  138
POSITION    1    0  142
POSITION    1    0  146
POSITION    1    0  150
POSITION    1    0  154
POSITION    1    0  158
POSITION    1    0  162
POSITION    1    0  166
POSITION    1    0  170
POSITION    1    0  174
POSITION    1    0  178
#POSITION    1    0  182
#POSITION    1    0  186
#POSITION    1    0  190
#POSITION    1    0  194
#POSITION    1    0  198
#POSITION    1    0  202
#POSITION    1    0  206
#POSITION    1    0  210
#POSITION    1    0  214
#POSITION    1    0  218
#POSITION    1    0  222
#POSITION    1    0  226
#POSITION    1    0  230
#POSITION    1    0  234
#POSITION    1    0  238
#POSITION    1    0  242
#POSITION    1    0  246
#POSITION    1    0  250
#POSITION    1    0  254
#POSITION    1    0  258
#POSITION    1    0  262
#POSITION    1    0  266


#--------------------------- eof 'ww_l'lst' -------------------------


