
#***********************************************************************
#***********************************************************************
#***                                                                 ***
#***                        w w e k d c v . l s t                    ***
#***                                                                 ***
#***                 C S   W A R E N W I R T S C H A F T             ***
#***             Listendefinition fuer Delivery Confirmation         ***
#***                             V 1.0                               ***
#***                                                                 ***
#***   Stand: 08.01.20012                           Autor: IF        ***
#***                                                                 ***
#***********************************************************************
#***********************************************************************


#***********************************************************************
#**                                                                   **
#**   Copyright (C) CS, 1995-2006, All Rights Reserved, Confidential  **
#**                                                                   **
#***********************************************************************

#------------------------------ Test -----------------------------------
#          x1   y1   x2   y2   RGB
#RECTANGLE   0    0 -0.1 -0.1  255;255;255  # Zeige gesamten Druckbereich
#-----------------------------------------------------------------------


#           x    y                          # Ausgangspunkt
OFFSET      0    0
SIZE      197  285                          # erwartete Groesse Bereich

#          x1   y1  x2   y2  Breite  RGB
#LINE        0  142   1  142   0      0;0;0  # Lochermarkierung Blattmitte
#LINE        0   92   1   92   0      0;0;0  # Faltmarkierung 1/3 Blatt
#LINE        0  190   1  190   0      0;0;0  # Faltmarkierung 2/3 Blatt

#           x    y                          # Heftrand links
OFFSET     10    0

#          Nr    h   Kenn   Name       RGB
FONT        1    6     B      "Arial"    0;0;0     # Font fuer ueberschrift
FONT        2    3     B      "Arial"    0;0;0     # Font fuer Listenueberschrift
FONT        3    3.3   -      "Arial"    0;0;0     # Font fuer Dateiname
FONT        4    3     -      "Arial"    0;0;0     # Font fuer Inlett

LANGUAGE    E                               # englisch
#           x    y   Text                 Font  Ausr
TEXT        0   10   "Deliver Confirmation"  1     L

#			satz	fldnr	x	y		FONT	Align
RANGE 1 0
FIELD       0  		100		0	20		3		L			#Delivery Confirmation Number
FIELD		0		110		0	24		3		L			#Delivery Confirmation Number TEXT
FIELD		0		111		20	24		3		L			#Revision Number
FIELD       0       120		0	28		3		L			#Address Number
FIELD		0		121		0	32		3		L			#Address Name
FIELD		0		122		0	36		3		L			#Address Name2
FIELD		0		123		0	40		3		L			#Address Name3
FIELD		0		124		0	44		3		L			#Street
FIELD		0		125		0	48		3		L			#City
FIELD		0		126		0	52		3		L			#State
FIELD		0		127		0	56		3		L			#Country Code
FIELD		0		128		0	60		3		L			#Country Name
FIELD		0		130		0	64		3		L			#Storage Number
FIELD		0		131		0	68		3		L			#Storage Name
FIELD		0		140		0	72		3		L			#Delivery Confirmation Date
FIELD		0		150		0	76		3		L			#Delivery Confirmation Delivery Date
FIELD		0		151		0	80		3		L			#Delivery Confirmation Time
FIELD		0		200		0	84		3		L			#Total Delivery Confimation Qty


#----------- Delivery Confirmation Items
RANGE 1 0
FIELD		1		100		0	0		3		L			#Purchase Order Number
FIELD		1		101	  150	0		3		L			#Position
FIELD		1		110	   30	0		3		L			#Item Number
FIELD		1		120	   50	0		3		L			#Qty Delivery Confirmation
FIELD		1		130	   70	0		3		L			#Remark
FIELD		1		140	   75	0		3		L			#Qty Open DN
FIELD		1		111	   80	0		3		L			#Item Name
FIELD		1		112	   85	0		3		L			#Item Text Line 1
FIELD		1		113	   90	0		3		L			#Item Text Line 1
FIELD		1		114	   95	0		3		L			#Item Text Line 1
FIELD		1		115	   100	0		3		L			#Item Text Line 1
FIELD		1		116	   105	0		3		L			#Unit
FIELD		1		117	   110	0		3		L			#Unit 2
FIELD		1		118	   115	0		3		L			#Unit 3




RANGE 0 0
#         Satz   x    y

#POSITION    1    0   82
POSITION    1    0   86
POSITION    1    0   90
POSITION    1    0   94
POSITION    1    0   98
POSITION    1    0  102
POSITION    1    0  106
POSITION    1    0  110

RANGE 0 0


#--------------------------- eof 'ww'lst' -------------------------


