
#***********************************************************************
#***********************************************************************
#***                                                                 ***
#***                           w w . l s t                           ***
#***                                                                 ***
#***                 C S   W A R E N W I R T S C H A F T             ***
#***                 Listendefinition fuer allg. Listen              ***
#***                             V 1.0                               ***
#***                                                                 ***
#***   Stand: 25.09.2006                            Autor: Roman12   ***
#***                                                                 ***
#***********************************************************************
#***********************************************************************


#***********************************************************************
#**                                                                   **
#**   Copyright (C) CS, 1995-2006, All Rights Reserved, Confidential  **
#**                                                                   **
#***********************************************************************

#------------------------------ Test -----------------------------------
#          x1   y1   x2   y2   RGB
#RECTANGLE   0    0 -0.1 -0.1  255;255;255  # Zeige gesamten Druckbereich
#-----------------------------------------------------------------------


#           x    y                          # Ausgangspunkt
OFFSET      0    0
#SIZE      285  197                          # erwartete Groesse Bereich
PRN_PAPERSIZE   A4
PRN_ORIENTATION L

#          x1   y1  x2   y2  Breite  RGB
LINE        0  142   1  142   0      0;0;0  # Lochermarkierung Blattmitte
LINE        0   92   1   92   0      0;0;0  # Faltmarkierung 1/3 Blatt
LINE        0  190   1  190   0      0;0;0  # Faltmarkierung 2/3 Blatt

#           x    y                          # Heftrand links
OFFSET     10    0

#          Nr    h   Kenn   Name       RGB
FONT        1    6   B      "Arial"    0;0;0     # Font fuer ueberschrift
FONT        2    3   B      "Arial"    0;0;0     # Font fuer Listenueberschrift
FONT        3    2   -      "Arial"    0;0;0     # Font fuer Dateiname
FONT        4    3   -      "Arial"    0;0;0     # Font fuer Inlett

LANGUAGE    E                               # englisch
#           x    y   Text                 Font  Ausr
TEXT      -15   10   "Page"                2     R
#TEXT       0   15   "Mandant:"            0     L

#           x    y   Font  Ausr
PAGE       -7   10    2     R

#          x1   y1   x2   y2   RGB           Linie
RECTANGLE   0   12   -6   22   225;225;225       # ueberschrift grau hinterlegen




RANGE 1 1
#          x1   y1   x2   y2   RGB           Linie
RECTANGLE   0   43   -6   47   255;225;225       # Table Title

#          x1   y1  x2   y2  Breite  RGB
LINE        0   43   0   160   0      0;0;0       # Table Vertical Line
LINE        7   43   7   160   0      0;0;0       # Table Vertical Line
LINE       23   43  23   160   0      0;0;0       # Table Vertical Line
LINE       41   43  41   160   0      0;0;0       # Table Vertical Line
LINE       59   43  59   160   0      0;0;0       # Table Vertical Line
LINE       88   43  88   160   0      0;0;0       # Table Vertical Line
LINE      102   43 102   160   0      0;0;0       # Table Vertical Line
LINE      114   43 114   160   0      0;0;0       # Table Vertical Line
LINE      124   43 124   160   0      0;0;0       # Table Vertical Line
LINE      144   43 144   160   0      0;0;0       # Table Vertical Line
LINE      164   43 164   160   0      0;0;0       # Table Vertical Line
LINE      185   43 185   160   0      0;0;0       # Table Vertical Line
LINE      206   43 206   160   0      0;0;0       # Table Vertical Line
LINE      227   43 227   160   0      0;0;0       # Table Vertical Line
LINE      248   43 248   160   0      0;0;0       # Table Vertical Line
LINE      269   43 269   160   0      0;0;0       # Table Vertical Line
LINE       0   160  -6   160   0      0;0;0       # Table Horizontal Line Bottom

#          x1   y1   x2   y2   RGB           Linie
RECTANGLE  185  165  269  190   255;225;225       # Signature Table

#          x1   y1  x2   y2  Breite  RGB
LINE       185  172  269  172   0      0;0;0       # Signature Table Horizontal Line
LINE       213  165  213  190   0      0;0;0       # Signature Table Vertical Line
LINE       241  165  241  190   0      0;0;0       # Signature Table Vertical Line

#           x    y   Text                 Font  Ausr
TEXT       199  170  "Approval"             4     C
TEXT       227  170  "Checker"              4     C
TEXT       256  170  "Maker"                4     C

TEXT       0    170  "Lembar Asli"          3     L
TEXT       0    174  "Lembar Merah"         3     L
TEXT       0    178  "Lembar Kuning"        3     L
TEXT       0    182  "Lembar Hijau"         3     L

TEXT      28    170  ": Finance"            3     L
TEXT      28    174  ": Invoice PPJK"       3     L
TEXT      28    178  ": Arsip I"            3     L
TEXT      28    182  ": Arsip II"           3     L

RANGE 2 0
LINE        0   22   0   160   0      0;0;0       # Table Vertical Line
LINE        7   22   7   160   0      0;0;0       # Table Vertical Line
LINE       23   22  23   160   0      0;0;0       # Table Vertical Line
LINE       41   22  41   160   0      0;0;0       # Table Vertical Line
LINE       59   22  59   160   0      0;0;0       # Table Vertical Line
LINE       88   22  88   160   0      0;0;0       # Table Vertical Line
LINE      102   22 102   160   0      0;0;0       # Table Vertical Line
LINE      114   22 114   160   0      0;0;0       # Table Vertical Line
LINE      124   22 124   160   0      0;0;0       # Table Vertical Line
LINE      144   22 144   160   0      0;0;0       # Table Vertical Line
LINE      164   22 164   160   0      0;0;0       # Table Vertical Line
LINE      185   22 185   160   0      0;0;0       # Table Vertical Line
LINE      206   22 206   160   0      0;0;0       # Table Vertical Line
LINE      227   22 227   160   0      0;0;0       # Table Vertical Line
LINE      248   22 248   160   0      0;0;0       # Table Vertical Line
LINE      269   22 269   160   0      0;0;0       # Table Vertical Line
LINE       0   160  -6   160   0      0;0;0       # Table Horizontal Line Bottom

RANGE 1 0

#         Satz Feld   x    y   Font  Ausr
FIELD       0    1    0   -0.8   3    L     # Dateiname Listfile
#FIELD      0    2   20   -0.8   3    L     # Groesse Druckbereich x [mm]
#FIELD      0    3   40   -0.8   3    L     # Groesse Druckbereich y [mm]

FIELD       0   10    5   19     1    L     # Name der Liste

#FIELD       0   100   5   19     1    L     # User Def 0

#FIELD      0  100   20   15     4    L     # Mandant-Nr
#FIELD      0  101   30   15     4    L     # Mandant-Name

FIELD       1   10    0    0     3    L     # Datenzeile

#         Satz   x    y
RANGE 1 0
POSITION    1    0   26
POSITION    1    0   30
POSITION    1    0   34
POSITION    1    0   38
POSITION    1    0   42
POSITION    1    0   46
POSITION    1    0   50
POSITION    1    0   54
POSITION    1    0   58
POSITION    1    0   62
POSITION    1    0   66
POSITION    1    0   70
POSITION    1    0   74
POSITION    1    0   78
POSITION    1    0   82
POSITION    1    0   86
POSITION    1    0   90
POSITION    1    0   94
POSITION    1    0   98
POSITION    1    0  102
POSITION    1    0  106
POSITION    1    0  110
POSITION    1    0  114
POSITION    1    0  118
POSITION    1    0  122
POSITION    1    0  126
POSITION    1    0  130
POSITION    1    0  134
POSITION    1    0  138
POSITION    1    0  142
POSITION    1    0  146
POSITION    1    0  150
POSITION    1    0  154
POSITION    1    0  158



#--------------------------- eof 'ww'lst' -------------------------


