
#***********************************************************************
#***********************************************************************
#***                                                                 ***
#***                          w w l s 1 . l s t                      ***
#***                                                                 ***
#***                 C S   W A R E N W I R T S C H A F T             ***
#***           Listendefinition fuer Lieferscheine (mit Preisen)     ***
#***                             V 1.0                               ***
#***                                                                 ***
#***   Stand: 08.01.99                              Autor: Roman12   ***
#***                                                                 ***
#***********************************************************************
#***********************************************************************


#***********************************************************************
#**                                                                   **
#**   Copyright (C) CS, 1995-1999, All Rights Reserved, Confidential  **
#**                                                                   **
#***********************************************************************

#------------------------------ Test -----------------------------------
#          x1   y1   x2   y2   RGB
#RECTANGLE   0    0 -0.1 -0.1   255;255;255 # Zeige gesamten Druckbereich
#-----------------------------------------------------------------------

VERSION   1.01

#           x    y                          # Ausgangspunkt
OFFSET      0    0
SIZE      197  285                          # erwartete Groesse Bereich

#          x1   y1  x2   y2  Breite  RGB
LINE        0  142   1  142   0      0;0;0  # Lochermarkierung Blattmitte
LINE        0   92   1   92   0      0;0;0  # Faltmarkierung 1/3 Blatt
LINE        0  190   1  190   0      0;0;0  # Faltmarkierung 2/3 Blatt

#           x    y                          # Heftrand links
OFFSET     20    6


#=================================================================
#===    An dieser Stelle koennen firmenspezifische             ===
#===    Bestandteile des Formulars wie z.B. Logos oder         ===
#===    Firmenanschrift eingefuegt werden. Die firmen-         ===
#===    spezifischen Bestandteile koennen entweder direkt      ===
#===    eingetragen werden oder in einer eigenen Datei         ===
#===    hinterlegt werden, die mit INCLUDE eingebunden wird.   ===
#===    Als Beispiel kann dazu die firmenspezifisches Datei    ===
#===    'CSHI.LST' dienen.                                     ===
#=================================================================
INCLUDE     "MANDANT.LST"                   # Firmenspezifische Bestandteile


#------------------- vom Formular verwendete Fonts ---------------------
#          Nr   h    Kenn   Name       RGB
FONT        1   3.3  -      "Arial"    0;0;0     # Font fuer Normalschrift
FONT        2   3.3  B      "Arial"    0;0;0     # Font fuer Fettgedrucktes
FONT        3   6    B      "Arial"    0;0;0     # Font fuer Gross-Schrift
FONT        4   2    -      "Arial"    0;0;0     # Font fuer Kleinschrift
FONT        5   4    -      "Arial"    0;0;0     # Font fuer Adresse
FONT        6   3.3  B      "Arial"    0;0;255   # Font fuer Ueberschriften
FONT        7   0.1  -      "Arial"    255;255;255   # Font fuer Unsichtbares
#FONT       8   8    -      "Code-128" 0;0;0     # Font fuer Code128 Barcode (installieren!)
#FONT       8  19    -   "Code-EAN-VH" 0;0;0     # Font fuer EAN13   Barcode (installieren!)


#------------------------ konstante Daten Seite 1 ----------------------
RANGE       1    1                          # nur 1. Seite

#           x    y   Text                 Font  Ausr
TEXT         0  74   "Tel:"                1     L
TEXT       -15  85   "Seite"               1     R
#           x    y   Font  Ausr
PAGE       -7   85    1     R

#           x    y   Text                 Font  Ausr
TEXT        0   85   "LIEFERSCHEIN"        3     L
TEXT        0   90   "Liefersch-Nr:"         1     L
TEXT        0   94   "vom:"                1     L
TEXT        0   98   "Kunden-Nr:"          1     L
#TEXT      80   90   "freie Ueberschr:"    1     L
TEXT       80   94   "unser Zeichen:"      1     L
TEXT       80   98   "Ihre Bestellung:"    1     L

#          x1   y1   x2   y2   RGB
RECTANGLE   0  100   -7  108   225;225;225  # grau hinterlegen

#           x    y   Text                 Font  Ausr
TEXT        8  105   "Pos"                 2     R
TEXT       22  105   "Menge"               2     R
TEXT       25  105   "Einheit"             2     L
TEXT       40  105   "Artikel-Nr"          2     L
TEXT       62  105   "Bezeichnung"         2     L
TEXT      130  105   "Einzelpreis"         2     R
TEXT       -9  105   "Gesamtpreis"         2     R

#--------------------- konstante Daten ab Seite 2 ----------------------
RANGE       2    0                          # ab Seite 2

#           x    y   Text                 Font  Ausr
TEXT       -15  33   "Seite"               1     R
#           x    y   Font  Ausr
PAGE       -7   33    1     R

#           x    y   Text                 Font  Ausr
TEXT        0   33   "Liefersch-Nr:"       1     L

#          x1   y1   x2   y2   RGB
RECTANGLE   0   35   -7   43   225;225;225  # grau hinterlegen

#           x    y   Text                 Font  Ausr
TEXT        8   40   "Pos"                 2     R
TEXT       22   40   "Menge"               2     R
TEXT       25   40   "Einheit"             2     L
TEXT       40   40   "Artikel-Nr"          2     L
TEXT       62   40   "Bezeichnung"         2     L
TEXT      130   40   "Einzelpreis"         2     R
TEXT       -9   40   "Gesamtpreis"         2     R

#TEXT      62   46   "Uebertrag"           1     L   # fuer Feld 4500

#--------------------- konstante Daten alle Seiten ---------------------
RANGE       0    0                          # alle Seiten

#          x1   y1   x2   y2   RGB
RECTANGLE   0  -20   -7  -32   225;225;225  # grau hinterlegen

#           x    y   Text                 Font  Ausr
#TEXT      62  242   "Uebertrag"             1     L   # fuer Feld 4600
TEXT       25  -28   "Nettobetrag"           2     R
TEXT      100  -28   "MwSt %"                2     R
TEXT      130  -28   "MwSt"                  2     R
TEXT       -9  -28   "Endbetrag"             2     R
TEXT        0  -15   "Zahlungsbedingungen:"  1     L


#------------------------ Allg Daten-Felder ----------------------------
#         Satz Feld   x    y   Font  Ausr
#FIELD      0     1   0   -0.8   4    L        # Dateiname Listfile
#FIELD      0    10   5   19     1    L        # Name der Liste

#---------------------- Datenfelder der Adresse ------------------------
RANGE       1     1                            # nur Seite 1

#         Satz Feld   x    y   Font  Ausr Lmax
#FIELD      0   100   0    0     1    L        # alternat. Adress-Nr
#FIELD      0   110   0    0     1    L        # Adress Gruppe
#FIELD      0   120   0    0     1    L        # Matchcode
#FIELD      0   130   0    0     1    L        # Adresskennung
#FIELD      0   140   0    0     1    L        # Selektionen

#FIELD      0   150   0   42     5    L        # Anrede
#FIELD      0   160   0   46     5    L        # Titel
#FIELD      0   170   0    0     5    L        # Titel + Name
#FIELD      0   171   0    0     5    L        # Titel + Vorname + Name
#FIELD      0   180   0    0     5    L        # VorName
#FIELD      0   181   0    0     5    L        # Name
#FIELD      0   182   0    0     5    L        # Name1 (konstant)
#FIELD      0   190   0   50     5    L        # Vorname + Name
#FIELD      0   191   0    0     5    L        # Name + Vorname
#FIELD      0   200   0   54     5    L        # Name 2
#FIELD      0   202   0    0     5    L        # Name 2 (konstant)
#FIELD      0   210   0   58     5    L        # Name 3
#FIELD      0   212   0    0     5    L        # Name 3 (konstant)
#FIELD      0   220   0   62     5    L        # Strasse
#FIELD      0   222   0    0     5    L        # Strasse (konstant)
#FIELD      0   230   0    0     5    L        # Land
#FIELD      0   240   0    0     5    L        # Land voller Name
#FIELD      0   241   0   70     5    L        # Land voller Name (nur Ausland)
#FIELD      0   250   0    0     5    L        # State
#FIELD      0   260   0    0     5    L        # PLZ
#FIELD      0   270   0    0     5    L        # Ort
#FIELD      0   280   0    0     5    L        # PLZ Ort
#FIELD      0   282   0   66     5    L        # PLZ Ort (Grossbuchstaben bei Ausland)
#FIELD      0   290   0    0     5    L        # Land PLZ Ort

#FIELD      0   300   0    0     1    L        # Telefon
#FIELD      0   301   0    0     1    L        # Telefon 2
#FIELD      0   302   0    0     1    L        # Telefon 3
#FIELD      0   310   0    0     1    L        # Fax
FIELD       0   311   0    0     7    L        # Codierte Fax-Nr fuer Fax-Programme (unsichtbar)
#FIELD      0   320   0    0     1    L        # Bemerkung

#FIELD      0   330   0    0     1    L        # Briefanrede
#FIELD      0   340   0    0     1    L        # Geburtsdatum
#FIELD      0   350   0    0     1    L        # Beitrittsdatum
#FIELD      0   360   0    0     1    L        # Bankname
#FIELD      0   370   0    0     1    L        # Bankkonto
#FIELD      0   380   0    0     1    L        # BLZ
#FIELD      0   390   0    0     1    L        # Ust ID
#FIELD      0   393   0    0     1    L        # Steuer-Nr
#FIELD      0   396   0    0     1    L        # HRB
#FIELD      0   400   0    0     1    L        # E-Mail
#FIELD      0   401   0    0     1    L        # E-Mail 2
#FIELD      0   402   0    0     1    L        # E-Mail 3
#FIELD      0   410   0    0     1    L        # Internet homepage
#FIELD      0   420   0    0     1    L        # Buchungskonto
#FIELD      0   430   0    0     1    L        # ILN
#FIELD      0   440   0    0     1    L   0  BITMAP   30  20   # Referenzdatei 1
#FIELD      0   441   0    0     1    L   0  BITMAP   30  20   # Referenzdatei 2

#FIELD      0   500   0    0     1    L        # Vertreter-Nr
#FIELD      0   510   0    0     1    L        # Factoring-Nr
#FIELD      0   520   0    0     1    L        # Meine Lieferantennr. bei Debitor
#FIELD      0   530   0    0     1    L        # Kreditlimit
#FIELD      0   540   0    0     1    L        # Saldo
#FIELD      0   550   0    0     1    L        # Adress-Storage
#FIELD      0   551   0    0     1    L        # Adress-Storage if used as Source
#FIELD      0   552   0    0     1    L        # Adress-Storage if used as Destination

#FIELD      0   600   0    0     1    L        # meine Kunden-Nr bei Creditor

#FIELD      0   650   0    0     1    L        # Text Zeile 1
#FIELD      0   651   0    0     1    L        # Text Zeile 2
#FIELD      0   652   0    0     1    L        # Text Zeile 3
#FIELD      0   653   0    0     1    L        # Text Zeile 4
#FIELD      0   654   0    0     1    L        # Text Zeile 5
#FIELD      0   655   0    0     1    L        # Text Zeile 6
#FIELD      0   656   0    0     1    L        # Text Zeile 7
#FIELD      0   657   0    0     1    L        # Text Zeile 8
#FIELD      0   658   0    0     1    L        # Text Zeile 9
#FIELD      0   659   0    0     1    L        # Text Zeile 10

#FIELD      0   670   0   42     5    L        # Anschrift Zeile 1
#FIELD      0   673   0   46     5    L        # Anschrift Zeile 2
#FIELD      0   676   0   50     5    L        # Anschrift Zeile 3
#FIELD      0   679   0   54     5    L        # Anschrift Zeile 4
#FIELD      0   682   0   58     5    L        # Anschrift Zeile 5
#FIELD      0   685   0   62     5    L        # Anschrift Zeile 6
#FIELD      0   688   0   66     5    L        # Anschrift Zeile 7
#FIELD      0   691   0   70     5    L        # Anschrift Zeile 8
#FIELD      0   694   0   74     5    L        # Anschrift Zeile 9

#FIELD      0   700   0    0     1    L        # Anwenderdef. Feld  1
#FIELD      0   705   0    0     1    L        # Anwenderdef. Feld  2
#FIELD      0   710   0    0     1    L        # Anwenderdef. Feld  3
#FIELD      0   715   0    0     1    L        # Anwenderdef. Feld  4
#FIELD      0   720   0    0     1    L        # Anwenderdef. Feld  5
#FIELD      0   725   0    0     1    L        # Anwenderdef. Feld  6

#------------------- Datenfelder der Liefer-Adresse --------------------
#         Satz Feld   x    y   Font  Ausr Lmax
#FIELD      0   750   0   46     1    L        # Anrede (Lieferadr oder Adr)
#FIELD      0   751   0    0     1    L        # Anrede (Lieferadr pur)
#FIELD      0   790   0   50     1    L        # Name (Lieferadr oder Adr)
#FIELD      0   791   0    0     1    L        # Name (Lieferadr pur)
#FIELD      0   800   0   54     1    L        # Name 2 (Lieferadr oder Adr)
#FIELD      0   801   0    0     1    L        # Name 2 (Lieferadr pur)
#FIELD      0   810   0   58     1    L        # Name 3 (Lieferadr oder Adr)
#FIELD      0   811   0    0     1    L        # Name 3 (Lieferadr pur)
#FIELD      0   820   0   62     1    L        # Strasse (Lieferadr oder Adr)
#FIELD      0   821   0    0     1    L        # Strasse (Lieferadr pur)
#FIELD      0   830   0    0     1    L        # Land (Lieferadr oder Adr)
#FIELD      0   831   0    0     1    L        # Land (Lieferadr pur)
#FIELD      0   840   0    0     1    L        # Land voller Name (Lieferadr oder Adr)
#FIELD      0   841   0    0     1    L        # Land voller Name (Lieferadr pur)
#FIELD      0   842   0   70     1    L        # Land voller Name - nur Ausland (Lieferadr oder Adr)
#FIELD      0   843   0    0     1    L        # Land voller Name - nur Ausland (Lieferadr pur)
#FIELD      0   850   0    0     1    L        # State (Lieferadr oder Adr)
#FIELD      0   851   0    0     1    L        # State (Lieferadr pur)
#FIELD      0   860   0    0     1    L        # PLZ (Lieferadr oder Adr)
#FIELD      0   861   0    0     1    L        # PLZ (Lieferadr pur)
#FIELD      0   870   0    0     1    L        # Ort (Lieferadr oder Adr)
#FIELD      0   871   0    0     1    L        # Ort (Lieferadr pur)
#FIELD      0   880   0    0     1    L        # PLZ Ort (Lieferadr oder Adr)
#FIELD      0   881   0    0     1    L        # PLZ Ort (Lieferadr pur)
#FIELD      0   884   0   66     1    L        # PLZ Ort - Grossbuchstaben bei Ausland (Lieferadr oder Adr)
#FIELD      0   885   0    0     1    L        # PLZ Ort - Grossbuchstaben bei Ausland (Lieferadr pur)
#FIELD      0   890   0    0     1    L        # Land PLZ Ort (Lieferadr oder Adr)
#FIELD      0   891   0    0     1    L        # Land PLZ Ort (Lieferadr pur)

FIELD       0   900   8   74     1    L        # Telefon (Lieferadr oder Adr)
#FIELD      0   901   0    0     1    L        # Telefon (Lieferadr pur)
#FIELD      0   910   0    0     1    L        # Fax (Lieferadr oder Adr)
#FIELD      0   911   0    0     1    L        # Fax (Lieferadr pur)
#FIELD      0   920   0    0     1    L        # Bemerkung (Lieferadr oder Adr)
#FIELD      0   921   0    0     1    L        # Bemerkung (Lieferadr pur)
#FIELD      0   930   0    0     1    L        # E-Mail (Lieferadr oder Adr)
#FIELD      0   931   0    0     1    L        # E-Mail (Lieferadr pur)
#FIELD      0   940   0    0     1    L        # Ust-ID (Lieferadr oder Adr)
#FIELD      0   941   0    0     1    L        # Ust-ID (Lieferadr pur)
#FIELD      0   950   0    0     1    L        # ILN (Lieferadr oder Adr)
#FIELD      0   951   0    0     1    L        # ILN (Lieferadr pur)

FIELD       0   970   0   42     5    L        # Anschrift Zeile 1 (Lieferadr oder Adr)
FIELD       0   973   0   46     5    L        # Anschrift Zeile 2 (Lieferadr oder Adr)
FIELD       0   976   0   50     5    L        # Anschrift Zeile 3 (Lieferadr oder Adr)
FIELD       0   979   0   54     5    L        # Anschrift Zeile 4 (Lieferadr oder Adr)
FIELD       0   982   0   58     5    L        # Anschrift Zeile 5 (Lieferadr oder Adr)
FIELD       0   985   0   62     5    L        # Anschrift Zeile 6 (Lieferadr oder Adr)
FIELD       0   988   0   66     5    L        # Anschrift Zeile 7 (Lieferadr oder Adr)
FIELD       0   991   0   70     5    L        # Anschrift Zeile 8 (Lieferadr oder Adr)
FIELD       0   994   0   74     5    L        # Anschrift Zeile 9 (Lieferadr oder Adr)

#--------------------- Datenfelder des Vertreters ----------------------
#FIELD      0  1000   0    0     1    L        # Vertreter-Name
#FIELD      0  1001   0    0     1    L        # Vertreter-Name 2
#FIELD      0  1010   0    0     1    L        # Vertreter-Tel
#FIELD      0  1020   0    0     1    L        # Vertreter-Fax
#FIELD      0  1030   0    0     1    L        # Vertreter-Email
#FIELD      0  1040   0    0     1    L        # Vertreter-Bemerkung
#FIELD      0  1050   0    0     1    L        # Vertreter-Strasse
#FIELD      0  1060   0    0     1    L        # Vertreter-Postleitzahl
#FIELD      0  1070   0    0     1    L        # Vertreter-Ort
#FIELD      0  1080   0    0     1    L        # Vertreter-Land

#FIELD      0  1100   0    0     1    L        # Liste Vertreter-Nummern aus Vorgang (oder Projekt)

#-------------------- Datenfelder des Ansprechpartners -----------------
#FIELD      0  1150   0    0     5    L        # Anrede
#FIELD      0  1160   0    0     5    L        # Titel
#FIELD      0  1180   0    0     5    L        # VorName
#FIELD      0  1181   0    0     5    L        # Name
#FIELD      0  1200   0    0     5    L        # Abteilung
#FIELD      0  1250   0    0     5    L        # Anrede / Titel / Vorname / Name

#-------------------- Datenfelder aus Configuration --------------------
FIELD       0  1500  80   90     1    L        # Freidef. Ueberschr

RANGE  0 0                                     # alle Seiten

#FIELD      0  1510  -9  -23     2    R        # Waehrungsname
FIELD       0  1511  -9  -23     2    R        # Waehrungsname (nur letzte Seite)
#FIELD      0  1520  -9  -15     2    R        # Waehrungsname Wrg 2
#FIELD      0  1521   0    0     2    R        # Waehrungsname Wrg 3
#FIELD      0  1522  -9  -15     2    R        # Waehrungsname Wrg 1
#FIELD      0  1530  -9  -15     2    R        # Waehrungsname Wrg 2 (nur letzte Seite)
#FIELD      0  1531   0    0     2    R        # Waehrungsname Wrg 3 (nur letzte Seite)
#FIELD      0  1532  -9  -15     2    R        # Waehrungsname Wrg 1 (nur letzte Seite)

RANGE  1 1                                     # nur 1. Seite

#--------------------- Datenfelder der Lieferbedingung -----------------
#FIELD      0  1700   0    0     1    L        # Lieferbedingung name
#FIELD      0  1800   0    0     1    L        # Name Zusteller

#--------------------- Datenfelder des Projektes -----------------------
#FIELD      0  2000   0    0     1    L        # Projekt name
#FIELD      0  2010   0    0     1    L        # Projekt-Text 1
#FIELD      0  2011   0    0     1    L        #              2
#FIELD      0  2012   0    0     1    L        #              3
#FIELD      0  2013   0    0     1    L        #              4
#FIELD      0  2014   0    0     1    L        #              5
#FIELD      0  2060   0    0     1    L        # Text besichtigt 1
#FIELD      0  2061   0    0     1    L        #                 2
#FIELD      0  2080   0    0     1    L        # Schadendatum
#FIELD      0  2090   0    0     1    L        # Besichtigungsdatum

#--------------------- Datenfelder des Benutzers -----------------------
#FIELD      0  2500   0    0     1    L        # Benutzer Nr
#FIELD      0  2510   0    0     1    L        # Benutzer Name
#FIELD      0  2520   0    0     1    L        # Benutzer Strasse
#FIELD      0  2530   0    0     1    L        # Benutzer PLZ
#FIELD      0  2540   0    0     1    L        # Benutzer Ort
#FIELD      0  2550   0    0     1    L        # Benutzer Telefon
#FIELD      0  2560   0    0     1    L        # Benutzer Fax
#FIELD      0  2570   0    0     1    L        # Benutzer E-mail
#FIELD      0  2580   0    0     1    L        # Benutzer Unser Zeichen
#FIELD      0  2590   0    0     1    L        # Benutzer Bemerkung

#--------------------- Datenfelder der Firma ---------------------------
#FIELD      0  2700   0    0     1    L        # Firma Nr
#FIELD      0  2710   0    0     1    L        # Firma Name
#FIELD      0  2720   0    0     1    L        # Firma Name2
#FIELD      0  2730   0    0     1    L        # Firma Name3
#FIELD      0  2740   0    0     1    L        # Firma Stasse
#FIELD      0  2750   0    0     1    L        # Firma PLZ
#FIELD      0  2760   0    0     1    L        # Firma Ort
#FIELD      0  2761   0    0     1    L        # Firma Land PLZ Ort
#FIELD      0  2762   0    0     1    L        # Firma PLZ Ort
#FIELD      0  2763   0    0     1    L        # Firma Name, Str, PLZ Ort
#FIELD      0  2770   0    0     1    L        # Firma Land
#FIELD      0  2780   0    0     1    L        # Firma Telefon
#FIELD      0  2790   0    0     1    L        # Firma Telefon2
#FIELD      0  2800   0    0     1    L        # Firma Fax
#FIELD      0  2810   0    0     1    L        # Firma Email
#FIELD      0  2820   0    0     1    L        # Firma Homepage
#FIELD      0  2830   0    0     1    L        # Firma Bankname
#FIELD      0  2840   0    0     1    L        # Firma BLZ
#FIELD      0  2845   0    0     1    L        # Firma BIC (SWIFT)
#FIELD      0  2850   0    0     1    L        # Firma Bankkonto
#FIELD      0  2855   0    0     1    L        # Firma IBAN (elektronische Form)
#FIELD      0  2856   0    0     1    L        # Firma IBAN (Papierform)
#FIELD      0  2860   0    0     1    L        # Firma Ust-ID
#FIELD      0  2870   0    0     1    L        # Firma ILN
#FIELD      0  2880   0    0     1    L        # Firma Bemerkung
#FIELD      0  2890   0    0     1    L        # Firma SteuerNr
#FIELD      0  2900   0    0     1    L        # Firma HRB

#---------------------- Datenfelder des Vorgangs -----------------------
FIELD       0  3000  23   90     1    L        # Formular-Nr

RANGE  2 0                                     # ab Seite 2
FIELD       0  3000  23   33     1    L        # Formular-Nr
RANGE  1 1                                     # nur Seite 1

FIELD       0  3010  23   94     1    L        # Formular-Datum
#FIELD      0  3011  23   94     1    L        # Formular-Datum, user defined format
#FIELD      0  3015   0    0     1    L        # Formular-Bezeichnung z.B. "Rechnung"
FIELD       0  3020  23   98     1    L        # Adress-Nr
#FIELD      0  3030   0    0     1    L        # Vertreter-Nr
#FIELD      0  3040   0    0     1    L        # Projekt-Nr
#FIELD      0  3050   0    0     1    L        # Kostenstelle
#FIELD      0  3055   0    0     1    L        # Kostentraeger
FIELD       0  3060 110   94     1    L        # unser Zeichen
#FIELD      0  3070 110   98     1    L        # Ihre Anfrage-Nr
FIELD       0  3080 110   98     1    L        # Ihre Bestell-Nr
#FIELD      0  3090   0    0     1    L        # lfd. Nr des Ausdrucks
#FIELD      0  3091   0    0     1    L        # lfd. Nr des Ausdrucks (ab 2)
#FIELD      0  3100   0    0     1    L        # Lager-Nr

#FIELD      0  3120   0    0     1    L        # Angebot-Nr
#FIELD      0  3121   0    0     1    L        # Auftr.bestaetigung-Nr
#FIELD      0  3122   0    0     1    L        # Bestellung-Nr
#FIELD      0  3123   0    0     1    L        # Gutschrift-Nr
#FIELD      0  3124   0    0     1    L        # Proforma-Rechung-Nr
#FIELD      0  3125   0    0     1    L        # Lieferschein-Nr
#FIELD      0  3126   0    0     1    L        # Rechnung-Nr
#FIELD      0  3127   0    0     1    L        # Brief-Nr
#FIELD      0  3128   0    0     1    L        # Anfrage-Nr
#FIELD      0  3129   0    0     1    L        # Ruecklieferschein-Nr
#FIELD      0  3130   0    0     1    L        # Komm.schein-Nr
#FIELD      0  3131   0    0     1    L        # Eingangsrechnung-Nr
#FIELD      0  3132   0    0     1    L        # Lieferanten-Gutschrift-Nr
#FIELD      0  3133   0    0     1    L        # Eingangs-Lieferschein-Nr

#FIELD      0  3150   0    0     1    L        # Angebot-Datum
#FIELD      0  3151   0    0     1    L        # Auftr.bestaetigung-Datum
#FIELD      0  3152   0    0     1    L        # Bestellung-Datum
#FIELD      0  3153   0    0     1    L        # Gutschrift-Datum
#FIELD      0  3154   0    0     1    L        # Proforma-Rechung-Datum
#FIELD      0  3155   0    0     1    L        # Lieferschein-Datum
#FIELD      0  3156   0    0     1    L        # Rechung-Datum
#FIELD      0  3157   0    0     1    L        # Brief-Datum
#FIELD      0  3158   0    0     1    L        # Anfrage-Datum
#FIELD      0  3159   0    0     1    L        # Ruecklieferschein-Datum
#FIELD      0  3160   0    0     1    L        # Komm.schein-Datum
#FIELD      0  3161   0    0     1    L        # Eingangsrechnung-Datum
#FIELD      0  3162   0    0     1    L        # Lieferanten-Gutschrift-Datum
#FIELD      0  3163   0    0     1    L        # Eingangs-Lieferschein-Datum

FIELD       0  3180 110   90     1    L        # Freidef. Feld
#FIELD      0  3190   0    0     1    L        # Vorgangstext
#FIELD      0  3200   0    0     1    L        # Tracking-Nr
#FIELD      0  3205   0    0     1    L        # Lieferdatum (Vorgangsdaten)
#FIELD      0  3206   0    0     1    L        # Lieferdatum (Vorgangsdaten), user defined format


RANGE  0 0                                     # alle Seiten
#FIELD      0  3210   0    0     1    L        # Gewicht (kg)
#FIELD      0  3220   0    0     1    L        # Packstuecke
#FIELD      0  3230   0    0     1    L        # Vorgangs-Nr
#FIELD      0  3231   0    0     1    L        # Vorgangs-Nr ohne '~'
#FIELD      0  3240   0    0     1    L        # Summe aller Stueckzahlen
#FIELD      0  3241   0    0     1    L        # Summe aller Stueckzahlen (Nur letzte Seite)
#FIELD      0  3245   0    0     1    L        # Summe aller Stueckzahlen in EK-Einheit   (Einheit2)
#FIELD      0  3246   0    0     1    L        # Summe aller Stueckzahlen in EK-Einheit   (Einheit2) (Nur letzte Seite)
#FIELD      0  3247   0    0     1    L        # Summe aller Stueckzahlen in Verp-Einheit (Einheit3)
#FIELD      0  3248   0    0     1    L        # Summe aller Stueckzahlen in Verp-Einheit (Einheit3) (Nur letzte Seite)
#FIELD      0  3249   0    0     1    L        # Summe aller Stueckzahlen in Verp-Einheit (Einheit3) (Nur letzte Seite) konstant 2 Nachkommastellen
#FIELD      0  3250   0    0     1    L        # Summe aller bestaetigten Stueckzahlen
#FIELD      0  3251   0    0     1    L        # Summe aller bestaetigten Stueckzahlen (Nur letzte Seite)

#FIELD      0  3300   0    0     1    L        # Preisklasse-Nr
#FIELD      0  3310   0    0     1    L        # Preisklasse: %-Wert
#FIELD      0  3311   0    0     1    L        # Preisklasse: Faktor
#FIELD      0  3320   0    0     1    L        # Tax invoice number (pure running number)
#FIELD      0  3330   0    0     1    L        # Tax invoice date
#FIELD      0  3340   0    0     1    L        # Complete tax invoice number

#FIELD      0  4090  50  -23     1    R        # Nachlass %
#FIELD      0  4091  50  -28     2    R        # Text zu Nachlass %
FIELD       0  4092  50  -23     1    R        # Nachlass % (nur letzte Seite)
FIELD       0  4093  50  -28     2    R        # Text zu Nachlass % (nur letzte Seite)
#FIELD      0  4100  75  -23     1    R        # Nachlass Betrag
#FIELD      0  4101  75  -28     2    R        # Text zu Nachlass Betrag
FIELD       0  4102  75  -23     1    R        # Nachlass Betrag (nur letzte Seite)
FIELD       0  4103  75  -28     2    R        # Text zu Nachlass Betrag (nur letzte Seite)
#FIELD      0  4104  75  -23     1    R        # Nachlass Betrag, Grundwaehrung
#FIELD      0  4110  25  -23     1    R        # Nettobetrag
FIELD       0  4111  25  -23     1    R        # Nettobetrag (nur letzte Seite)
#FIELD      0  4112   0    0     1    R        # Nettobetrag incl globaler Rabatt
#FIELD      0  4113   0    0     1    R        # Nettobetrag incl glob. Rab. (letzte Seite)
#FIELD      0  4114   0    0     1    R        # Nettobetrag incl glob. Rab. Grundwaehrung
#FIELD      0  4115   0    0     1    R        # Nettobetrag incl glob. Rab. Grundwaehrung (letzte Seite)
#FIELD      0  4116   0    0     1    R        # Nettobetrag Grundwaehrung
#FIELD      0  4117   0    0     1    R        # Nettobetrag Grundwaehrung (letzte Seite)
#FIELD      0  4120 100  -23     1    R        # MwSt %
FIELD       0  4121 100  -23     1    R        # MwSt % (nur letzte Seite)
#FIELD      0  4130 130  -23     1    R        # MwSt Betrag
FIELD       0  4131 130  -23     1    R        # MwSt Betrag (nur letzte Seite)
#FIELD      0  4134   0    0     1    R        # MwSt Betrag Grundwaehrung
#FIELD      0  4135   0    0     1    R        # MwSt Betrag Grundwaehrung (letzte Seite)
#FIELD      0  4140 -17  -23     2    R        # Bruttobetrag
FIELD       0  4141 -17  -23     2    R        # Bruttobetrag (nur letzte Seite)
#FIELD      0  4142 -17  -23     2    R        # Bruttobetrag in Worten / Indonesisch (nur letzte Seite)
#FIELD      0  4143 -17  -23     2    R        # Bruttobetrag in Worten / Englisch    (nur letzte Seite)
#FIELD      0  4144 -17  -23     2    R        # Bruttobetrag in Worten / Englisch mit Nachkommastellen (nur letzte Seite)
#FIELD      0  4145 -17  -23     2    L        # Bruttobetrag in Worten / Indonesisch, Zeile 1 (nur letzte Seite)
#FIELD      0  4146 -17  -23     2    L        # Bruttobetrag in Worten / Indonesisch, Zeile 2 (nur letzte Seite)
#FIELD      0  4147 -17  -23     2    L        # Bruttobetrag in Worten / Indonesisch, Zeile 3 (nur letzte Seite)
#FIELD      0  4148 -17  -23     2    L        # Bruttobetrag in Worten / Indonesisch, Zeile 4 (nur letzte Seite)
#FIELD      0  4149 -17  -23     2    R        # Bruttobetrag in Worten / Indonesisch mit Nachkommastellen (nur letzte Seite)
#FIELD      0  4150 -17  -15     2    R        # Bruttobetrag Wrg 2
#FIELD      0  4151   0    0     2    R        # Bruttobetrag Wrg 3
#FIELD      0  4152 -17  -15     2    R        # Bruttobetrag Wrg 1
#FIELD      0  4160 -17  -15     2    R        # Bruttobetrag Wrg 2 (nur letzte Seite)
#FIELD      0  4161   0    0     2    R        # Bruttobetrag Wrg 3 (nur letzte Seite)
#FIELD      0  4162 -17  -15     2    R        # Bruttobetrag Wrg 1 (nur letzte Seite)
#FIELD      0  4165  27  -37     2    L        # Bruttobetrag in Worten / English, Zeile 1 (nur letzte Seite)
#FIELD      0  4166  27  -35     2    L        # Bruttobetrag in Worten / English, Zeile 2 (nur letzte Seite)
#FIELD      0  4167  27  -33     2    L        # Bruttobetrag in Worten / English, Zeile 3 (nur letzte Seite)
#FIELD      0  4168  27  -31     2    L        # Bruttobetrag in Worten / English, Zeile 4 (nur letzte Seite)
FIELD       0  4170  35  -15     1    L        # Zahlungsbedingung Text
#FIELD      0  4185 -17  -23     2    L        # Bruttobetrag in Worten / Indonesisch mit Nachkommastellen, Zeile 1 (nur letzte Seite)
#FIELD      0  4186 -17  -23     2    L        # Bruttobetrag in Worten / Indonesisch mit Nachkommastellen, Zeile 2 (nur letzte Seite)
#FIELD      0  4187 -17  -23     2    L        # Bruttobetrag in Worten / Indonesisch mit Nachkommastellen, Zeile 3 (nur letzte Seite)
#FIELD      0  4188 -17  -23     2    L        # Bruttobetrag in Worten / Indonesisch mit Nachkommastellen, Zeile 4 (nur letzte Seite)
#FIELD      0  4195  27  -37     2    L        # Bruttobetrag in Worten / English mit Nachkommastellen, Zeile 1 (nur letzte Seite)
#FIELD      0  4196  27  -35     2    L        # Bruttobetrag in Worten / English mit Nachkommastellen, Zeile 2 (nur letzte Seite)
#FIELD      0  4197  27  -33     2    L        # Bruttobetrag in Worten / English mit Nachkommastellen, Zeile 3 (nur letzte Seite)
#FIELD      0  4198  27  -31     2    L        # Bruttobetrag in Worten / English mit Nachkommastellen, Zeile 4 (nur letzte Seite)
#FIELD      0  4200   0    0     1    R        # Kurs bei Fremdwaehrung
#FIELD      0  4201   0    0     1    R        # reziproker Kurs bei Fremdwaehrung
#FIELD      0  4205   0    0     1    R        # Zweiter Kurs bei Fremdwaehrung
#FIELD      0  4206   0    0     1    R        # reziproker zweiter Kurs bei Fremdwaehrung
#FIELD      0  4250   0    0     1    L        # Zusteller-Nr

RANGE  2 0                                     # ab Seite 2
#FIELD      0  4500  -9   46     1    R        # Uebertrag Nettobetrag (Seitenbeginn)
#FIELD      0  4501   0    0     1    R        # Uebertrag Bruttobetrag (Seitenbeginn)
#FIELD      0  4510   0    0     1    R        # Uebertrag Gewicht (Seitenbeginn)
#FIELD      0  4520   0    0     1    R        # Uebertrag Packstuecke (Seitenbeginn)

RANGE  0 0                                     # alle Seiten
#FIELD      0  4600  -9  242     1    R        # Uebertrag Nettobetrag (Seitenende)
#FIELD      0  4601   0    0     1    R        # Uebertrag Bruttobetrag (Seitenende)
#FIELD      0  4610   0    0     1    R        # Uebertrag Gewicht (Seitenende)
#FIELD      0  4620   0    0     1    R        # Uebertrag Packstuecke (Seitenende)

#FIELD      0  4706   0    0     1    R        # Nettobetrag Grundwaehrung aller Artikel mit MwSt
#FIELD      0  4707   0    0     1    R        # Nettobetrag Grundwaehrung aller Artikel mit MwSt (letzte Seite)

RANGE  1 1                                     # nur Seite 1
#FIELD      0  4850   0    0     1    L        # Angebot-Datum                 user defined format
#FIELD      0  4851   0    0     1    L        # Auftr.bestaetigung-Datum      user defined format
#FIELD      0  4852   0    0     1    L        # Bestellung-Datum              user defined format
#FIELD      0  4853   0    0     1    L        # Gutschrift-Datum              user defined format
#FIELD      0  4854   0    0     1    L        # Proforma-Rechung-Datum        user defined format
#FIELD      0  4855   0    0     1    L        # Lieferschein-Datum            user defined format
#FIELD      0  4856   0    0     1    L        # Rechung-Datum                 user defined format
#FIELD      0  4857   0    0     1    L        # Brief-Datum                   user defined format
#FIELD      0  3158   0    0     1    L        # Anfrage-Datum                 user defined format
#FIELD      0  4859   0    0     1    L        # Ruecklieferschein-Datum       user defined format
#FIELD      0  4860   0    0     1    L        # Komm.schein-Datum             user defined format
#FIELD      0  4861   0    0     1    L        # Eingangsrechnung-Datum        user defined format
#FIELD      0  4862   0    0     1    L        # Lieferanten-Gutschrift-Datum  user defined format
#FIELD      0  4863   0    0     1    L        # Eingangs-Lieferschein-Datum   user defined format


RANGE  0 0                                     # alle Seiten
#FIELD      0  5000   0    0     1    L        # Anwenderdef. Feld 1
#FIELD      0  5010   0    0     1    L        # Anwenderdef. Feld 2
#FIELD      0  5020   0    0     1    L        # Anwenderdef. Feld 3
#FIELD      0  5030   0    0     1    L        # Anwenderdef. Feld 4
#FIELD      0  5040   0    0     1    L        # Anwenderdef. Feld 5
#FIELD      0  5050   0    0     1    L        # Anwenderdef. Feld 6
#FIELD      0  5060   0    0     1    L        # Anwenderdef. Feld 7
#FIELD      0  5070   0    0     1    L        # Anwenderdef. Feld  8
#FIELD      0  5080   0    0     1    L        # Anwenderdef. Feld  9
#FIELD      0  5090   0    0     1    L        # Anwenderdef. Feld 10
#FIELD      0  5100   0    0     1    L        # Anwenderdef. Feld 11
#FIELD      0  5110   0    0     1    L        # Anwenderdef. Feld 12
#FIELD      0  5120   0    0     1    L        # Anwenderdef. Feld 13
#FIELD      0  5130   0    0     1    L        # Anwenderdef. Feld 14
#FIELD      0  5140   0    0     1    L        # Anwenderdef. Feld 15
#FIELD      0  5150   0    0     1    L        # Anwenderdef. Feld 16
#FIELD      0  5160   0    0     1    L        # Anwenderdef. Feld 17
#FIELD      0  5170   0    0     1    L        # Anwenderdef. Feld 18
#FIELD      0  5180   0    0     1    L        # Anwenderdef. Feld 19
#FIELD      0  5190   0    0     1    L        # Anwenderdef. Feld 20
#FIELD      0  5200   0    0     1    L        # Anwenderdef. Feld 21
#FIELD      0  5210   0    0     1    L        # Anwenderdef. Feld 22
#FIELD      0  5220   0    0     1    L        # Anwenderdef. Feld 23
#FIELD      0  5230   0    0     1    L        # Anwenderdef. Feld 24
#FIELD      0  5240   0    0     1    L        # Anwenderdef. Feld 25
#FIELD      0  5250   0    0     1    L        # Anwenderdef. Feld 26
#FIELD      0  5260   0    0     1    L        # Anwenderdef. Feld 27
#FIELD      0  5270   0    0     1    L        # Anwenderdef. Feld 28
#FIELD      0  5280   0    0     1    L        # Anwenderdef. Feld 29
#FIELD      0  5290   0    0     1    L        # Anwenderdef. Feld 30

#------------------- Datenfelder der Liefer-Adresse 2 ------------------
#RANGE 1 1                                     # nur Seite 1
#INCLUDE     "ww_adrl2.lst"                    # Felder fuer Lieferadresse 2 (=Auftragsadresse)
#RANGE 0 0                                     # alle Seiten

#--------------------- Datenfelder der Leistungszeile ------------------
RANGE  0 0                                     # alle Seiten

#         Satz Feld   x    y   Font  Ausr Lmax
FIELD       1   100   8    0    1     R        # Position
FIELD       1   110  22    0    1     R        # Menge gesamt
#FIELD      1   111   0    0    1     R        # Menge 1
#FIELD      1   112   0    0    1     R        # Menge 2
#FIELD      1   113  22    0    1     R        # Menge gesamt mit konstant 2 Nachkommastellen
#FIELD      1   114   0    0    1     R        # Gesamtmenge in EK-Einheit   (Einheit2) konstant 2 Nachkommastellen
#FIELD      1   115   0    0    1     R        # Gesamtmenge in EK-Einheit (Einheit2)
#FIELD      1   116   0    0    1     R        # Gesamtmenge in Verp-Einheit (Einheit3) konstant 2 Nachkommastellen
#FIELD      1   117   0    0    1     R        # Gesamtmenge in Verp-Einheit (Einheit3)
#FIELD      1   118   0    0    1     R        # Durch Teiluebernahmen entnommene Menge
#FIELD      1   119   0    0    1     R        # Urspruengliche Menge (bei Teiluebernahmen)
FIELD       1   120  25    0    1     L        # Einheit
#FIELD      1   121  25    0    1     L        # EK-Einheit (Einheit2)
#FIELD      1   122  25    0    1     L        # Verp-Einheit (Einheit3)
FIELD       1   130  40    0    1     L        # Artikel-Nr
#FIELD      1   130  22    9    8     L   0  Code128    # Artikel-Nr  als Code128 Barcode
#FIELD      1   130  28    8    8     L   0  EAN13      # Artikel-Nr  als EAN13   Barcode
#FIELD      1   130  28    8    8     L   0  Code39     # Artikel-Nr  als Code39  Barcode
FIELD       1   131  62    0    1     L        # Artikel-Nr wenn in Textspalte gedruckt (x-Koordinate sinnvollerweise wie bei Feld 140)
#FIELD      1   135  40    0    1     L        # Artikel-Nr (Variante bzw Artikel)
#FIELD      1   136  40    0    1     L        # Artikel-Nr Variante pur
FIELD       1   140  62    0    1     L        # Text
FIELD       1   141   0    0    1     L        # Text lang
FIELD       1   145   0    0    6     L        # Text Leistungsart 'U'eberschrift
FIELD       1   146  62    0    2     L        # Text Leistungsart '='Zwischensumme
FIELD       1   150 130    0    1     R        # Einzelpreis
#FIELD      1   151   0    0    1     R        # Einzelpreis-Brutto
#FIELD      1   152   0    0    1     R        # Einzelpreis auf 2 Stellen gerundet
#FIELD      1   155 130    0    1     R        # Einzelpreis in EK-Einheit (Einheit2)
#FIELD      1   157 130    0    1     R        # Einzelpreis in Verp-Einheit (Einheit3)
FIELD       1   160  -9    0    1     R        # Gesamtpreis
#FIELD      1   161   0    0    1     R        # Gesamtpreis-Brutto
#FIELD      1   162  -9    0    1     R        # Gesamtpreis ohne Rabatte
FIELD       1   166  -9    0    2     R        # Gesamtpreis Leistungsart '='Zwischensumme
FIELD       1   170 145    0    1     R        # Rabatt %
#FIELD      1   171 145    0    1     R        # Rabattbetrag pro stueck
#FIELD      1   172 145    0    1     R        # Rabattbetrag gesamt
#FIELD      1   200   0    0    1     R        # Gewicht (einzeln)
#FIELD      1   201   0    0    1     R        # Gewicht (Summe Leistung)
#FIELD      1   210   0    0    1     R        # Packstuecke (einzeln)
#FIELD      1   211   0    0    1     R        # Packstuecke (Summe Leistung)
#FIELD      1   220   0    0    1     L        # Lager-Nr
#FIELD      1   225   0    0    1     L        # Lager-Name
#FIELD      1   300   0    0    1     R        # Bestaet. Menge
#FIELD      1   310   0    0    1     R        # Rueckstandsmenge
#FIELD      1   315   0    0    1     R        # Noch offene Menge bei Rahmenvertraegen
#FIELD      1   320   0    0    1     R        # gelieferte Menge
#FIELD      1   330   0    0    1     R        # Reservierte Menge (Bei Rahmenvertraegen die Gesamtmenge)
#FIELD      1   335   0    0    1     R        # Bisher gelieferte Menge bei Rahmenvertraegen
FIELD       1   400 146    0    1     L        # MwSt-Kennung (A,B,C...)
#FIELD      1   401 146    0    1     L        # MwSt-Kennung als Zahl
#FIELD      1   402 146    0    1     L        # MwSt-Kennung als Zahl mit "%" angehaengt
FIELD       1   410 131    0    1     L        # Mengenkennung (Z,H,T)
#FIELD      1   411   0    0    1     R        # Mengenkennung als Zahl
#FIELD      1   450   0    0    1     L        # Liefertermin
#FIELD      1   451   0    0    1     L        # Liefertermin, user defined format
#FIELD      1   455   0    0    1     L        # Liefertermin, KW, Format: KW ww
#FIELD      1   456   0    0    1     L        # Liefertermin, KW, Format: KW ww/yyyy

#FIELD      1   500   0    0    1     R        # Ganzzahl Gesamtmenge in Verp-Einheit (Einheit3)
#FIELD      1   502   0    0    1     R        # Restmenge in Grundeinheit
#FIELD      1   504   0    0    1     L        # Grundeinheit, wenn Restmenge vorhanden

FIELD       1   800   0    0    1     L        # Spalte 0 
FIELD       1   801  25    0    1     L        # Spalte 1 
FIELD       1   802  50    0    1     L        # Spalte 2 
FIELD       1   803  75    0    1     L        # Spalte 3 
FIELD       1   804 100    0    1     L        # Spalte 4 
FIELD       1   805 125    0    1     L        # Spalte 5 
FIELD       1   806 150    0    1     L        # Spalte 6 
#FIELD      1   807   0    0    1     L        # Spalte 7 
#FIELD      1   808   0    0    1     L        # Spalte 8 
#FIELD      1   809   0    0    1     L        # Spalte 9 
FIELD       1   810   0    0    1     L  170   # Spalte10 (Re:leer,   Mahn: Rech-Nr)
FIELD       1   811  25    0    1     R        # Spalte11 (Re:Betrag, Mahn: Rech-Datum)
FIELD       1   812  50    0    1     L        # Spalte12 (Re:Kenn,   Mahn: Mahnstufe)
FIELD       1   813 100    0    1     R        # Spalte13 (Re:MwSt-%, Mahn: 'faellig seit')
FIELD       1   814 130    0    1     R        # Spalte14 (Re:MwSt-DM,Mahn: Betrag)
FIELD       1   815 -17    0    1     R        # Spalte15 (Re:Brutto ,Mahn: Waehrung)

#------ Felder zugehoeriger Artikel -------
#         Satz Feld   x    y   Font  Ausr Lmax
#FIELD      1  2010   0    0    1     L        # Alternative Artikel-Nr
#FIELD      1  2010  22    9    8     L   0  Code128    # alternative Artikel-Nr  als Code128 Barcode
#FIELD      1  2010  28    8    8     L   0  EAN13      # alternative Artikel-Nr  als EAN13   Barcode
#FIELD      1  2020   0    0    1     L        # EAN Code
#FIELD      1  2020  22    9    8     L   0  Code128    # EAN Code  als Code128 Barcode
#FIELD      1  2020  28    8    8     L   0  EAN13      # EAN Code  als EAN13   Barcode
#FIELD      1  2020  28    8    8     L   0  EAN8       # EAN Code  als EAN8    Barcode
#FIELD      1  2020  28    8    8     L   0  EAN        # EAN Code  als EAN13 oder EAN8 Barcode
#FIELD      1  2030   0    0    1     L        # Lagerplatz
#FIELD      1  2040  20    8    1     L   0  BITMAP   20   10   # Bild-Nr
#FIELD      1  2041  20    8    1     L   0  BITMAP   20   10   # Referenzdatei 1
#FIELD      1  2042  20    8    1     L   0  BITMAP   20   10   # Referenzdatei 2
#FIELD      1  2050   0    0    1     L        # Hersteller-Nr
#FIELD      1  2051   0    0    1     L        # Hersteller-Nr Variante bzw Artikel
#FIELD      1  2052   0    0    1     L        # Hersteller-Nr Variante pur
#FIELD      1  2060   0    0    1     R        # Verpackungseinheit
#FIELD      1  2070   0    0    1     R        # Length
#FIELD      1  2080   0    0    1     R        # Width
#FIELD      1  2090   0    0    1     R        # Height
#FIELD      1  2100   0    0    1     R        # Dimensions
#FIELD      1  2110   0    0    1     R        # Weight
#FIELD      1  2120   0    0    1     R        # Selektionen
#FIELD      1  2130   0    0    1     R        # Matchcode
#FIELD      1  2140   0    0    1     R        # Textzeile 1 (ohne Variante)
#FIELD      1  2141   0    0    1     R        # Textzeile 2 (ohne Variante)
#FIELD      1  2142   0    0    1     R        # Textzeile 3 (ohne Variante)
#FIELD      1  2143   0    0    1     R        # Textzeile 4 (ohne Variante)

#FIELD      1  2200   0    0    1     L        # Anwenderdef. Feld  1
#FIELD      1  2210   0    0    1     L        # Anwenderdef. Feld  2
#FIELD      1  2220   0    0    1     L        # Anwenderdef. Feld  3
#FIELD      1  2230   0    0    1     L        # Anwenderdef. Feld  4
#FIELD      1  2240   0    0    1     L        # Anwenderdef. Feld  5
#FIELD      1  2250   0    0    1     L        # Anwenderdef. Feld  6
#FIELD      1  2260   0    0    1     L        # Anwenderdef. Feld  7
#FIELD      1  2270   0    0    1     L        # Anwenderdef. Feld  8
#FIELD      1  2280   0    0    1     L        # Anwenderdef. Feld  9
#FIELD      1  2290   0    0    1     L        # Anwenderdef. Feld 10
#FIELD      1  2300   0    0    1     L        # Anwenderdef. Feld 11
#FIELD      1  2310   0    0    1     L        # Anwenderdef. Feld 12
#FIELD      1  2320   0    0    1     L        # Anwenderdef. Feld 13
#FIELD      1  2330   0    0    1     L        # Anwenderdef. Feld 14
#FIELD      1  2340   0    0    1     L        # Anwenderdef. Feld 15
#FIELD      1  2350   0    0    1     L        # Anwenderdef. Feld 16
#FIELD      1  2360   0    0    1     L        # Anwenderdef. Feld 17
#FIELD      1  2370   0    0    1     L        # Anwenderdef. Feld 18
#FIELD      1  2380   0    0    1     L        # Anwenderdef. Feld 19
#FIELD      1  2390   0    0    1     L        # Anwenderdef. Feld 20

#------- Felder aus Konfiguration ------------
#FIELD      1  5010   0    0    1     L        # Waehrungsname

#----- Felder zugehoeriger Referenz-Vorgang ------
#FIELD      1  6120   0    0     1    L        # Angebot-Nr
#FIELD      1  6121   0    0     1    L        # Auftr.bestaetigung-Nr
#FIELD      1  6122   0    0     1    L        # Bestellung-Nr
#FIELD      1  6123   0    0     1    L        # Gutschrift-Nr
#FIELD      1  6124   0    0     1    L        # Proforma-Rechung-Nr
#FIELD      1  6125   0    0     1    L        # Lieferschein-Nr
#FIELD      1  6126   0    0     1    L        # Rechnung-Nr
#FIELD      1  6127   0    0     1    L        # Brief-Nr
#FIELD      1  6128   0    0     1    L        # Anfrage-Nr
#FIELD      1  6129   0    0     1    L        # Ruecklieferschein-Nr
#FIELD      1  6130   0    0     1    L        # Kommschein-Nr
#FIELD      1  6131   0    0     1    L        # Eingangsrechnung-Nr
#FIELD      1  6132   0    0     1    L        # Lieferanten-Gutschrift-Nr
#FIELD      1  6133   0    0     1    L        # Eingangs-Lieferschein-Nr

#FIELD      1  6150   0    0     1    L        # Angebot-Datum
#FIELD      1  6151   0    0     1    L        # Auftr.bestaetigung-Datum
#FIELD      1  6152   0    0     1    L        # Bestellung-Datum
#FIELD      1  6153   0    0     1    L        # Gutschrift-Datum
#FIELD      1  6154   0    0     1    L        # Proforma-Rechung-Datum
#FIELD      1  6155   0    0     1    L        # Lieferschein-Datum
#FIELD      1  6156   0    0     1    L        # Rechung-Datum
#FIELD      1  6157   0    0     1    L        # Brief-Datum
#FIELD      1  6158   0    0     1    L        # Anfrage-Datum
#FIELD      1  6159   0    0     1    L        # Ruecklieferschein-Datum
#FIELD      1  6160   0    0     1    L        # Kommschein-Datum
#FIELD      1  6161   0    0     1    L        # Eingangsrechnung-Datum
#FIELD      1  6162   0    0     1    L        # Lieferanten-Gutschrift-Datum
#FIELD      1  6163   0    0     1    L        # Eingangs-Lieferschein-Datum


#------------------------ Definition Datensaetze -----------------------
RANGE  2 0                                       # ab seite 2

#         Satz   x    y
#POSITION    1    0   38
#POSITION    1    0   42
#POSITION    1    0   46
POSITION    1    0   50
POSITION    1    0   54
POSITION    1    0   58
POSITION    1    0   62
POSITION    1    0   66
POSITION    1    0   70
POSITION    1    0   74
POSITION    1    0   78
POSITION    1    0   82
POSITION    1    0   86
POSITION    1    0   90
POSITION    1    0   94
POSITION    1    0   98
POSITION    1    0  102
POSITION    1    0  106
POSITION    1    0  110
POSITION    1    0  114

RANGE  0 0                                       # alle Seiten

POSITION    1    0  118
POSITION    1    0  122
POSITION    1    0  126
POSITION    1    0  130
POSITION    1    0  134
POSITION    1    0  138
POSITION    1    0  142
POSITION    1    0  146
POSITION    1    0  150
POSITION    1    0  154
POSITION    1    0  158
POSITION    1    0  162
POSITION    1    0  166
POSITION    1    0  170
POSITION    1    0  174
POSITION    1    0  178
POSITION    1    0  182
POSITION    1    0  186
POSITION    1    0  190
POSITION    1    0  194
POSITION    1    0  198
POSITION    1    0  202
POSITION    1    0  206
POSITION    1    0  210
POSITION    1    0  214
POSITION    1    0  218
POSITION    1    0  222
POSITION    1    0  226
POSITION    1    0  230
POSITION    1    0  234
POSITION    1    0  238
#POSITION    1    0  242
#POSITION    1    0  246
#POSITION    1    0  250
#POSITION    1    0  254
#POSITION    1    0  258
#POSITION    1    0  262
#POSITION    1    0  266


#--------------------------- eof 'wwls.lst' ----------------------------



